<?xml version="1.0" encoding="UTF-8" standalone="no"?>
<!-- Created with Inkscape (http://www.inkscape.org/) -->
<svg
   xmlns:dc="http://purl.org/dc/elements/1.1/"
   xmlns:cc="http://creativecommons.org/ns#"
   xmlns:rdf="http://www.w3.org/1999/02/22-rdf-syntax-ns#"
   xmlns:svg="http://www.w3.org/2000/svg"
   xmlns="http://www.w3.org/2000/svg"
   xmlns:sodipodi="http://sodipodi.sourceforge.net/DTD/sodipodi-0.dtd"
   xmlns:inkscape="http://www.inkscape.org/namespaces/inkscape"
   width="978.5661"
   height="515.92175"
   id="svg2"
   sodipodi:version="0.32"
   inkscape:version="0.46"
   sodipodi:docname="dirchletAssemblyII.svg"
   inkscape:output_extension="org.inkscape.output.svg.inkscape"
   version="1.0">
  <defs
     id="defs4">
    <marker
       inkscape:stockid="Arrow2Lend"
       orient="auto"
       refY="0"
       refX="0"
       id="Arrow2Lend"
       style="overflow:visible">
      <path
         id="path3367"
         style="font-size:12px;fill-rule:evenodd;stroke-width:0.625;stroke-linejoin:round"
         d="M 8.7185878,4.0337352 L -2.2072895,0.016013256 L 8.7185884,-4.0017078 C 6.97309,-1.6296469 6.9831476,1.6157441 8.7185878,4.0337352 z"
         transform="matrix(-1.1,0,0,-1.1,-1.1,0)" />
    </marker>
    <marker
       inkscape:stockid="DotM"
       orient="auto"
       refY="0"
       refX="0"
       id="DotM"
       style="overflow:visible">
      <path
         id="path3411"
         d="M -2.5,-1 C -2.5,1.76 -4.74,4 -7.5,4 C -10.26,4 -12.5,1.76 -12.5,-1 C -12.5,-3.76 -10.26,-6 -7.5,-6 C -4.74,-6 -2.5,-3.76 -2.5,-1 z"
         style="fill-rule:evenodd;stroke:#000000;stroke-width:1pt;marker-start:none;marker-end:none"
         transform="matrix(0.4,0,0,0.4,2.96,0.4)" />
    </marker>
    <inkscape:perspective
       sodipodi:type="inkscape:persp3d"
       inkscape:vp_x="0 : 526.18109 : 1"
       inkscape:vp_y="0 : 1000 : 0"
       inkscape:vp_z="744.09448 : 526.18109 : 1"
       inkscape:persp3d-origin="372.04724 : 350.78739 : 1"
       id="perspective10" />
  </defs>
  <sodipodi:namedview
     id="base"
     pagecolor="#ffffff"
     bordercolor="#666666"
     borderopacity="1.0"
     gridtolerance="10000"
     guidetolerance="10"
     objecttolerance="10"
     inkscape:pageopacity="0.0"
     inkscape:pageshadow="2"
     inkscape:zoom="1.2600069"
     inkscape:cx="489.28305"
     inkscape:cy="257.96088"
     inkscape:document-units="px"
     inkscape:current-layer="layer1"
     showgrid="false"
     inkscape:window-width="1678"
     inkscape:window-height="1019"
     inkscape:window-x="0"
     inkscape:window-y="0" />
  <metadata
     id="metadata7">
    <rdf:RDF>
      <cc:Work
         rdf:about="">
        <dc:format>image/svg+xml</dc:format>
        <dc:type
           rdf:resource="http://purl.org/dc/dcmitype/StillImage" />
      </cc:Work>
    </rdf:RDF>
  </metadata>
  <g
     inkscape:label="Layer 1"
     inkscape:groupmode="layer"
     id="layer1"
     transform="translate(93.756284,-13.680234)">
    <g
       id="g4661"
       transform="translate(0,2.5596548)">
      <g
         id="g3322">
        <g
           id="g3312">
          <text
             id="text3163"
             y="63.349159"
             x="75.632668"
             style="font-size:40px;font-style:normal;font-weight:bold;fill:#0000ff;fill-opacity:1;stroke:none;stroke-width:1px;stroke-linecap:butt;stroke-linejoin:miter;stroke-opacity:1;font-family:Bitstream Vera Sans;-inkscape-font-specification:Sans"
             xml:space="preserve"><tspan
               y="63.349159"
               x="75.632668"
               id="tspan3165"
               sodipodi:role="line">5</tspan></text>
          <text
             id="text3167"
             y="63.632362"
             x="134.31003"
             style="font-size:40px;font-style:normal;font-weight:bold;fill:#000000;fill-opacity:1;stroke:none;stroke-width:1px;stroke-linecap:butt;stroke-linejoin:miter;stroke-opacity:1;font-family:Bitstream Vera Sans;-inkscape-font-specification:Sans"
             xml:space="preserve"><tspan
               y="63.632362"
               x="134.31003"
               id="tspan3169"
               sodipodi:role="line">1</tspan></text>
          <text
             id="text3171"
             y="63.632362"
             x="254.26241"
             style="font-size:40px;font-style:normal;font-weight:bold;fill:#000000;fill-opacity:1;stroke:none;stroke-width:1px;stroke-linecap:butt;stroke-linejoin:miter;stroke-opacity:1;font-family:Bitstream Vera Sans;-inkscape-font-specification:Sans"
             xml:space="preserve"><tspan
               y="63.632362"
               x="254.26241"
               id="tspan3173"
               sodipodi:role="line">7</tspan></text>
          <text
             id="text3175"
             y="63.612831"
             x="194.85262"
             style="font-size:40px;font-style:normal;font-weight:bold;fill:#000000;fill-opacity:1;stroke:none;stroke-width:1px;stroke-linecap:butt;stroke-linejoin:miter;stroke-opacity:1;font-family:Bitstream Vera Sans;-inkscape-font-specification:Sans"
             xml:space="preserve"><tspan
               y="63.612831"
               x="194.85262"
               id="tspan3177"
               sodipodi:role="line">3</tspan></text>
        </g>
        <g
           id="g3203">
          <g
             transform="translate(-3.7919294e-2,0)"
             id="g3179">
            <rect
               style="opacity:1;fill:none;fill-opacity:1;fill-rule:nonzero;stroke:#000000;stroke-width:0.94651335;stroke-linecap:butt;stroke-miterlimit:4;stroke-dasharray:none;stroke-dashoffset:0;stroke-opacity:1"
               id="rect2383"
               width="239.05348"
               height="60.056919"
               x="60.473259"
               y="19.832008" />
            <path
               style="fill:none;fill-rule:evenodd;stroke:#000000;stroke-width:1px;stroke-linecap:butt;stroke-linejoin:miter;stroke-opacity:1"
               d="M 120.5,19.416276 L 120.5,78.959524"
               id="path3155" />
            <path
               style="fill:none;fill-rule:evenodd;stroke:#000000;stroke-width:1px;stroke-linecap:butt;stroke-linejoin:miter;stroke-opacity:1"
               d="M 180.5,20.710695 L 180.5,80.253943"
               id="path3159" />
            <path
               style="fill:none;fill-rule:evenodd;stroke:#000000;stroke-width:1px;stroke-linecap:butt;stroke-linejoin:miter;stroke-opacity:1"
               d="M 240.5,19.888368 L 240.5,79.431616"
               id="path3161" />
          </g>
          <text
             id="text3195"
             y="60.489407"
             x="13.056962"
             style="font-size:40px;font-style:normal;font-weight:bold;fill:#000000;fill-opacity:1;stroke:none;stroke-width:1px;stroke-linecap:butt;stroke-linejoin:miter;stroke-opacity:1;font-family:Bitstream Vera Sans;-inkscape-font-specification:Sans"
             xml:space="preserve"><tspan
               y="60.489407"
               x="13.056962"
               id="tspan3197"
               sodipodi:role="line">u</tspan></text>
        </g>
      </g>
      <g
         id="g3284">
        <g
           id="g3212"
           transform="translate(-1.2499995,0)">
          <g
             transform="translate(-3.7919295e-2,114.55603)"
             id="g3185">
            <rect
               style="opacity:1;fill:none;fill-opacity:1;fill-rule:nonzero;stroke:#000000;stroke-width:0.94651335;stroke-linecap:butt;stroke-miterlimit:4;stroke-dasharray:none;stroke-dashoffset:0;stroke-opacity:1"
               id="rect3187"
               width="239.05348"
               height="60.056919"
               x="60.473259"
               y="19.832008" />
            <path
               style="fill:none;fill-rule:evenodd;stroke:#000000;stroke-width:1px;stroke-linecap:butt;stroke-linejoin:miter;stroke-opacity:1"
               d="M 120.5,19.416276 L 120.5,78.959524"
               id="path3189" />
            <path
               style="fill:none;fill-rule:evenodd;stroke:#000000;stroke-width:1px;stroke-linecap:butt;stroke-linejoin:miter;stroke-opacity:1"
               d="M 180.5,20.710695 L 180.5,80.253943"
               id="path3191" />
            <path
               style="fill:none;fill-rule:evenodd;stroke:#000000;stroke-width:1px;stroke-linecap:butt;stroke-linejoin:miter;stroke-opacity:1"
               d="M 240.5,19.888368 L 240.5,79.431616"
               id="path3193" />
          </g>
          <text
             id="text3199"
             y="179.58646"
             x="17.920242"
             style="font-size:40px;font-style:normal;font-weight:bold;fill:#000000;fill-opacity:1;stroke:none;stroke-width:1px;stroke-linecap:butt;stroke-linejoin:miter;stroke-opacity:1;font-family:Bitstream Vera Sans;-inkscape-font-specification:Sans"
             xml:space="preserve"><tspan
               y="179.58646"
               x="17.920242"
               id="tspan3201"
               sodipodi:role="line">f</tspan></text>
        </g>
        <g
           id="g3273">
          <text
             sodipodi:linespacing="125%"
             id="text3233"
             y="176.68289"
             x="75.632668"
             style="font-size:40px;font-style:normal;font-variant:normal;font-weight:bold;font-stretch:normal;text-align:start;line-height:125%;writing-mode:lr-tb;text-anchor:start;fill:#0000ff;fill-opacity:1;stroke:none;stroke-width:1px;stroke-linecap:butt;stroke-linejoin:miter;stroke-opacity:1;font-family:Sans;-inkscape-font-specification:Sans Bold"
             xml:space="preserve"><tspan
               id="tspan3271"
               sodipodi:role="line"
               x="75.632668"
               y="176.68289">5</tspan></text>
          <text
             sodipodi:linespacing="125%"
             id="text3237"
             y="176.96609"
             x="134.31003"
             style="font-size:40px;font-style:normal;font-variant:normal;font-weight:bold;font-stretch:normal;text-align:start;line-height:125%;writing-mode:lr-tb;text-anchor:start;fill:#000000;fill-opacity:1;stroke:none;stroke-width:1px;stroke-linecap:butt;stroke-linejoin:miter;stroke-opacity:1;font-family:Sans;-inkscape-font-specification:Sans Bold"
             xml:space="preserve"><tspan
               id="tspan3267"
               sodipodi:role="line"
               x="134.31003"
               y="176.96609">0</tspan></text>
          <text
             sodipodi:linespacing="125%"
             id="text3241"
             y="176.96609"
             x="254.26241"
             style="font-size:40px;font-style:normal;font-variant:normal;font-weight:bold;font-stretch:normal;text-align:start;line-height:125%;writing-mode:lr-tb;text-anchor:start;fill:#000000;fill-opacity:1;stroke:none;stroke-width:1px;stroke-linecap:butt;stroke-linejoin:miter;stroke-opacity:1;font-family:Sans;-inkscape-font-specification:Sans Bold"
             xml:space="preserve"><tspan
               id="tspan3257"
               sodipodi:role="line"
               x="254.26241"
               y="176.96609">0</tspan><tspan
               id="tspan3259"
               sodipodi:role="line"
               x="254.26241"
               y="226.96609" /></text>
          <text
             sodipodi:linespacing="125%"
             id="text3245"
             y="176.94656"
             x="194.85262"
             style="font-size:40px;font-style:normal;font-variant:normal;font-weight:bold;font-stretch:normal;text-align:start;line-height:125%;writing-mode:lr-tb;text-anchor:start;fill:#000000;fill-opacity:1;stroke:none;stroke-width:1px;stroke-linecap:butt;stroke-linejoin:miter;stroke-opacity:1;font-family:Sans;-inkscape-font-specification:Sans Bold"
             xml:space="preserve"><tspan
               id="tspan3261"
               sodipodi:role="line"
               x="194.85262"
               y="176.94656">0</tspan></text>
        </g>
      </g>
    </g>
    <text
       xml:space="preserve"
       style="font-size:40px;font-style:normal;font-weight:bold;fill:#000000;fill-opacity:1;stroke:none;stroke-width:1px;stroke-linecap:butt;stroke-linejoin:miter;stroke-opacity:1;font-family:Bitstream Vera Sans;-inkscape-font-specification:Sans"
       x="-379.26459"
       y="490.58459"
       id="text3263"><tspan
         sodipodi:role="line"
         id="tspan3265"
         x="-379.26459"
         y="490.58459" /></text>
    <g
       id="g4652">
      <g
         transform="translate(867.26035,-84.137198)"
         id="g4640">
        <path
           sodipodi:type="star"
           style="opacity:1;fill:none;fill-opacity:1;fill-rule:nonzero;stroke:#000000;stroke-width:1;stroke-linecap:butt;marker-end:none;stroke-miterlimit:4;stroke-dasharray:none;stroke-dashoffset:0;stroke-opacity:1"
           id="path3341"
           sodipodi:sides="3"
           sodipodi:cx="-405.15298"
           sodipodi:cy="194.16277"
           sodipodi:r1="99.703835"
           sodipodi:r2="49.851917"
           sodipodi:arg1="1.0548708"
           sodipodi:arg2="2.1020684"
           inkscape:flatsided="true"
           inkscape:rounded="0"
           inkscape:randomized="0"
           d="M -355.96508,280.8888 L -504.85388,193.39772 L -354.63999,108.20178 L -355.96508,280.8888 z"
           transform="matrix(0.9999383,-1.1106371e-2,1.1106371e-2,0.9999383,-2.187198,-4.7609299)" />
        <path
           sodipodi:type="star"
           style="opacity:1;fill:none;fill-opacity:1;fill-rule:nonzero;stroke:#000000;stroke-width:1;stroke-linecap:butt;marker-end:none;stroke-miterlimit:4;stroke-dasharray:none;stroke-dashoffset:0;stroke-opacity:1"
           id="path4638"
           sodipodi:sides="3"
           sodipodi:cx="-405.15298"
           sodipodi:cy="194.16277"
           sodipodi:r1="99.703835"
           sodipodi:r2="49.851917"
           sodipodi:arg1="1.0548708"
           sodipodi:arg2="2.1020684"
           inkscape:flatsided="true"
           inkscape:rounded="0"
           inkscape:randomized="0"
           d="M -355.96508,280.8888 L -504.85388,193.39772 L -354.63999,108.20178 L -355.96508,280.8888 z"
           transform="matrix(-0.9999383,-1.1106371e-2,-1.1106371e-2,0.9999383,-707.45002,-3.971521)" />
      </g>
      <path
         transform="translate(-4,-4)"
         d="M 372.79251,114.55603 A 7.7665105,8.4137201 0 1 1 357.25949,114.55603 A 7.7665105,8.4137201 0 1 1 372.79251,114.55603 z"
         sodipodi:ry="8.4137201"
         sodipodi:rx="7.7665105"
         sodipodi:cy="114.55603"
         sodipodi:cx="365.026"
         id="path4644"
         style="opacity:1;fill:#0000ff;fill-opacity:1;fill-rule:nonzero;stroke:#000000;stroke-width:1;stroke-linecap:butt;stroke-miterlimit:4;stroke-dasharray:none;stroke-dashoffset:0;stroke-opacity:1"
         sodipodi:type="arc" />
      <path
         transform="translate(146.26928,-91.962076)"
         d="M 372.79251,114.55603 A 7.7665105,8.4137201 0 1 1 357.25949,114.55603 A 7.7665105,8.4137201 0 1 1 372.79251,114.55603 z"
         sodipodi:ry="8.4137201"
         sodipodi:rx="7.7665105"
         sodipodi:cy="114.55603"
         sodipodi:cx="365.026"
         id="path4646"
         style="opacity:1;fill:#000000;fill-opacity:1;fill-rule:nonzero;stroke:#000000;stroke-width:1;stroke-linecap:butt;stroke-miterlimit:4;stroke-dasharray:none;stroke-dashoffset:0;stroke-opacity:1"
         sodipodi:type="arc" />
      <path
         transform="translate(147.5637,82.195574)"
         d="M 372.79251,114.55603 A 7.7665105,8.4137201 0 1 1 357.25949,114.55603 A 7.7665105,8.4137201 0 1 1 372.79251,114.55603 z"
         sodipodi:ry="8.4137201"
         sodipodi:rx="7.7665105"
         sodipodi:cy="114.55603"
         sodipodi:cx="365.026"
         id="path4648"
         style="opacity:1;fill:#000000;fill-opacity:1;fill-rule:nonzero;stroke:#000000;stroke-width:1;stroke-linecap:butt;stroke-miterlimit:4;stroke-dasharray:none;stroke-dashoffset:0;stroke-opacity:1"
         sodipodi:type="arc" />
      <path
         transform="translate(299.01066,-4.5304605)"
         d="M 372.79251,114.55603 A 7.7665105,8.4137201 0 1 1 357.25949,114.55603 A 7.7665105,8.4137201 0 1 1 372.79251,114.55603 z"
         sodipodi:ry="8.4137201"
         sodipodi:rx="7.7665105"
         sodipodi:cy="114.55603"
         sodipodi:cx="365.026"
         id="path4650"
         style="opacity:1;fill:#000000;fill-opacity:1;fill-rule:nonzero;stroke:#000000;stroke-width:1;stroke-linecap:butt;stroke-miterlimit:4;stroke-dasharray:none;stroke-dashoffset:0;stroke-opacity:1"
         sodipodi:type="arc" />
    </g>
    <path
       style="fill:none;fill-rule:evenodd;stroke:#000000;stroke-width:2.5;stroke-linecap:butt;stroke-linejoin:miter;marker-mid:url(#Arrow2Lend);marker-end:none;stroke-miterlimit:4;stroke-dasharray:none;stroke-opacity:1"
       d="M 25.902104,93.184392 C -54.372685,160.50217 -113.93004,234.22158 -68.613641,288.0758 C 14.250656,401.90403 29.785023,391.35544 29.785023,391.35544"
       id="path4722"
       sodipodi:nodetypes="ccc" />
    <text
       xml:space="preserve"
       style="font-size:40px;font-style:normal;font-weight:bold;fill:#000000;fill-opacity:1;stroke:none;stroke-width:1px;stroke-linecap:butt;stroke-linejoin:miter;stroke-opacity:1;font-family:Bitstream Vera Sans;-inkscape-font-specification:Sans"
       x="68.072021"
       y="293.00555"
       id="text6814"><tspan
         sodipodi:role="line"
         id="tspan6816"
         x="68.072021"
         y="293.00555"
         style="fill:#ff0000">Restrict</tspan></text>
    <text
       xml:space="preserve"
       style="font-size:40px;font-style:normal;font-weight:bold;fill:#000000;fill-opacity:1;stroke:none;stroke-width:1px;stroke-linecap:butt;stroke-linejoin:miter;stroke-opacity:1;font-family:Bitstream Vera Sans;-inkscape-font-specification:Sans"
       x="-234.28973"
       y="374.08694"
       id="text6979"><tspan
         sodipodi:role="line"
         id="tspan6981"
         x="-234.28973"
         y="374.08694" /></text>
    <g
       id="g8883">
      <g
         transform="translate(0,6.8587058)"
         id="g6865">
        <rect
           style="opacity:1;fill:none;fill-opacity:1;fill-rule:nonzero;stroke:#000000;stroke-width:1.04491007;stroke-linecap:butt;stroke-miterlimit:4;stroke-dasharray:none;stroke-dashoffset:0;stroke-opacity:1"
           id="rect6855"
           width="59.936649"
           height="179.95509"
           x="238.0434"
           y="341.88464" />
        <path
           style="fill:none;fill-rule:evenodd;stroke:#000000;stroke-width:1.0187633px;stroke-linecap:butt;stroke-linejoin:miter;stroke-opacity:1"
           d="M 238.18237,461.8528 L 298.16361,460.57714"
           id="path6859" />
        <path
           style="fill:none;fill-rule:evenodd;stroke:#000000;stroke-width:1.0187633px;stroke-linecap:butt;stroke-linejoin:miter;stroke-opacity:1"
           d="M 239.24842,401.8528 L 299.22966,400.57714"
           id="path6863" />
      </g>
      <text
         id="text6991"
         y="385.06238"
         x="258.04138"
         style="font-size:28px;font-style:normal;font-weight:bold;fill:#000000;fill-opacity:1;stroke:none;stroke-width:1px;stroke-linecap:butt;stroke-linejoin:miter;stroke-opacity:1;font-family:Bitstream Vera Sans;-inkscape-font-specification:Sans"
         xml:space="preserve"><tspan
           style="fill:#0000ff"
           y="385.06238"
           x="258.04138"
           id="tspan6993"
           sodipodi:role="line">5</tspan></text>
      <text
         id="text6995"
         y="446.71411"
         x="257.52869"
         style="font-size:28px;font-style:normal;font-weight:bold;fill:#000000;fill-opacity:1;stroke:none;stroke-width:1px;stroke-linecap:butt;stroke-linejoin:miter;stroke-opacity:1;font-family:Bitstream Vera Sans;-inkscape-font-specification:Sans"
         xml:space="preserve"><tspan
           y="446.71411"
           x="257.52869"
           id="tspan6997"
           sodipodi:role="line">1</tspan></text>
      <text
         id="text6999"
         y="508.15399"
         x="258.32166"
         style="font-size:28px;font-style:normal;font-weight:bold;fill:#000000;fill-opacity:1;stroke:none;stroke-width:1px;stroke-linecap:butt;stroke-linejoin:miter;stroke-opacity:1;font-family:Bitstream Vera Sans;-inkscape-font-specification:Sans"
         xml:space="preserve"><tspan
           y="508.15399"
           x="258.32166"
           id="tspan7001"
           sodipodi:role="line">3</tspan></text>
    </g>
  </g>
</svg>
