<?xml version="1.0" encoding="UTF-8" standalone="no"?>
<!-- Created with Inkscape (http://www.inkscape.org/) -->
<svg
   xmlns:dc="http://purl.org/dc/elements/1.1/"
   xmlns:cc="http://creativecommons.org/ns#"
   xmlns:rdf="http://www.w3.org/1999/02/22-rdf-syntax-ns#"
   xmlns:svg="http://www.w3.org/2000/svg"
   xmlns="http://www.w3.org/2000/svg"
   xmlns:sodipodi="http://sodipodi.sourceforge.net/DTD/sodipodi-0.dtd"
   xmlns:inkscape="http://www.inkscape.org/namespaces/inkscape"
   width="410.31625"
   height="391.5672"
   id="svg2"
   sodipodi:version="0.32"
   inkscape:version="0.46"
   sodipodi:docname="normalFlowCondition.svg"
   inkscape:output_extension="org.inkscape.output.svg.inkscape"
   version="1.0">
  <defs
     id="defs4">
    <marker
       inkscape:stockid="Arrow2Lend"
       orient="auto"
       refY="0"
       refX="0"
       id="Arrow2Lend"
       style="overflow:visible">
      <path
         id="path3183"
         style="font-size:12px;fill-rule:evenodd;stroke-width:0.625;stroke-linejoin:round"
         d="M 8.7185878,4.0337352 L -2.2072895,0.016013256 L 8.7185884,-4.0017078 C 6.97309,-1.6296469 6.9831476,1.6157441 8.7185878,4.0337352 z"
         transform="matrix(-1.1,0,0,-1.1,-1.1,0)" />
    </marker>
    <marker
       inkscape:stockid="Arrow2Lstart"
       orient="auto"
       refY="0"
       refX="0"
       id="Arrow2Lstart"
       style="overflow:visible">
      <path
         id="path3180"
         style="font-size:12px;fill-rule:evenodd;stroke-width:0.625;stroke-linejoin:round"
         d="M 8.7185878,4.0337352 L -2.2072895,0.016013256 L 8.7185884,-4.0017078 C 6.97309,-1.6296469 6.9831476,1.6157441 8.7185878,4.0337352 z"
         transform="matrix(1.1,0,0,1.1,1.1,0)" />
    </marker>
    <inkscape:perspective
       sodipodi:type="inkscape:persp3d"
       inkscape:vp_x="0 : 526.18109 : 1"
       inkscape:vp_y="0 : 1000 : 0"
       inkscape:vp_z="744.09448 : 526.18109 : 1"
       inkscape:persp3d-origin="372.04724 : 350.78739 : 1"
       id="perspective10" />
  </defs>
  <sodipodi:namedview
     id="base"
     pagecolor="#ffffff"
     bordercolor="#666666"
     borderopacity="1.0"
     gridtolerance="10000"
     guidetolerance="10"
     objecttolerance="10"
     inkscape:pageopacity="0.0"
     inkscape:pageshadow="2"
     inkscape:zoom="0.77254772"
     inkscape:cx="143.58239"
     inkscape:cy="526.18109"
     inkscape:document-units="px"
     inkscape:current-layer="layer1"
     showgrid="false"
     inkscape:window-width="1678"
     inkscape:window-height="1019"
     inkscape:window-x="0"
     inkscape:window-y="0" />
  <metadata
     id="metadata7">
    <rdf:RDF>
      <cc:Work
         rdf:about="">
        <dc:format>image/svg+xml</dc:format>
        <dc:type
           rdf:resource="http://purl.org/dc/dcmitype/StillImage" />
      </cc:Work>
    </rdf:RDF>
  </metadata>
  <g
     inkscape:label="Layer 1"
     inkscape:groupmode="layer"
     id="layer1"
     transform="translate(-160.39481,-7.4690666)">
    <path
       sodipodi:type="star"
       style="opacity:1;fill:none;fill-opacity:1;fill-rule:nonzero;stroke:#000000;stroke-width:1;stroke-linecap:butt;stroke-miterlimit:4;stroke-dasharray:none;stroke-dashoffset:0;stroke-opacity:1"
       id="path2383"
       sodipodi:sides="3"
       sodipodi:cx="-403.85855"
       sodipodi:cy="230.40648"
       sodipodi:r1="181.33412"
       sodipodi:r2="90.667061"
       sodipodi:arg1="2.8220994"
       sodipodi:arg2="3.869297"
       inkscape:flatsided="true"
       inkscape:rounded="0"
       inkscape:randomized="0"
       d="M -576.01621,287.3609 L -367.1037,52.836368 L -268.45575,351.02217 L -576.01621,287.3609 z"
       transform="translate(744.2906,37.538134)" />
    <path
       style="fill:none;fill-rule:evenodd;stroke:#000000;stroke-width:0.92400002;stroke-linecap:butt;stroke-linejoin:miter;marker-start:url(#Arrow2Lstart);marker-end:url(#Arrow2Lend);stroke-miterlimit:4;stroke-dasharray:none;stroke-opacity:1"
       d="M 477.60768,329.40442 L 477.60768,388.48011 L 536.68336,387.36548"
       id="path3157" />
    <path
       style="fill:none;fill-rule:evenodd;stroke:#000000;stroke-width:0.92400002;stroke-linecap:butt;stroke-linejoin:miter;marker-start:url(#Arrow2Lstart);marker-end:url(#Arrow2Lend);stroke-miterlimit:4;stroke-dasharray:none;stroke-opacity:1"
       d="M 168.45187,265.83207 L 168.45187,324.90776 L 227.52755,323.79313"
       id="path4460" />
    <path
       style="fill:none;fill-rule:evenodd;stroke:#000000;stroke-width:0.92400002;stroke-linecap:butt;stroke-linejoin:miter;marker-start:url(#Arrow2Lstart);marker-end:url(#Arrow2Lend);stroke-miterlimit:4;stroke-dasharray:none;stroke-opacity:1"
       d="M 378.34621,30.344208 L 378.34621,89.419898 L 437.42189,88.305268"
       id="path4462" />
    <path
       style="fill:none;fill-rule:evenodd;stroke:#000000;stroke-width:1px;stroke-linecap:butt;stroke-linejoin:miter;marker-end:url(#Arrow2Lend);stroke-opacity:1"
       d="M 269.23903,210.9902 L 221.34555,172.15765"
       id="path4464" />
    <text
       xml:space="preserve"
       style="font-size:30.22297668px;font-style:normal;font-weight:normal;fill:#000000;fill-opacity:1;stroke:none;stroke-width:1px;stroke-linecap:butt;stroke-linejoin:miter;stroke-opacity:1;font-family:Bitstream Vera Sans;-inkscape-font-specification:Bitstream Vera Sans"
       x="268.25949"
       y="167.8895"
       id="text5001"
       transform="scale(0.9264475,1.079392)"><tspan
         sodipodi:role="line"
         id="tspan5003"
         x="268.25949"
         y="167.8895">n</tspan></text>
    <g
       id="g5017"
       transform="translate(521.65063,71.309758)">
      <text
         id="text4989"
         y="256.29486"
         x="-286.06647"
         style="font-size:28px;font-style:normal;font-weight:normal;fill:#000000;fill-opacity:1;stroke:none;stroke-width:1px;stroke-linecap:butt;stroke-linejoin:miter;stroke-opacity:1;font-family:Bitstream Vera Sans;-inkscape-font-specification:Bitstream Vera Sans"
         xml:space="preserve"><tspan
           y="256.29486"
           x="-286.06647"
           id="tspan4991"
           sodipodi:role="line">u</tspan></text>
      <text
         id="text5005"
         y="263.25436"
         x="-268.39114"
         style="font-size:28px;font-style:normal;font-weight:bold;fill:#000000;fill-opacity:1;stroke:none;stroke-width:1px;stroke-linecap:butt;stroke-linejoin:miter;stroke-opacity:1;font-family:Bitstream Vera Sans;-inkscape-font-specification:Sans"
         xml:space="preserve"><tspan
           style="font-size:16px;font-weight:normal;-inkscape-font-specification:Bitstream Vera Sans"
           y="263.25436"
           x="-268.39114"
           id="tspan5007"
           sodipodi:role="line">1</tspan></text>
    </g>
    <g
       id="g5023"
       transform="translate(818.54454,102.02557)">
      <text
         id="text4993"
         y="289.94974"
         x="-274.41672"
         style="font-size:28px;font-style:normal;font-weight:bold;fill:#000000;fill-opacity:1;stroke:none;stroke-width:1px;stroke-linecap:butt;stroke-linejoin:miter;stroke-opacity:1;font-family:Bitstream Vera Sans;-inkscape-font-specification:Sans"
         xml:space="preserve"><tspan
           style="font-weight:normal;-inkscape-font-specification:Bitstream Vera Sans"
           y="289.94974"
           x="-274.41672"
           id="tspan4995"
           sodipodi:role="line">u</tspan></text>
      <text
         id="text5009"
         y="297.01068"
         x="-256.41159"
         style="font-size:28px;font-style:normal;font-weight:bold;fill:#000000;fill-opacity:1;stroke:none;stroke-width:1px;stroke-linecap:butt;stroke-linejoin:miter;stroke-opacity:1;font-family:Bitstream Vera Sans;-inkscape-font-specification:Sans"
         xml:space="preserve"><tspan
           style="font-size:16px;font-weight:normal;-inkscape-font-specification:Bitstream Vera Sans"
           y="297.01068"
           x="-256.41159"
           id="tspan5011"
           sodipodi:role="line">2</tspan></text>
    </g>
    <g
       id="g5029"
       transform="translate(693.80828,-233.11206)">
      <text
         id="text4997"
         y="324.89902"
         x="-252.41159"
         style="font-size:28px;font-style:normal;font-weight:bold;fill:#000000;fill-opacity:1;stroke:none;stroke-width:1px;stroke-linecap:butt;stroke-linejoin:miter;stroke-opacity:1;font-family:Bitstream Vera Sans;-inkscape-font-specification:Sans"
         xml:space="preserve"><tspan
           style="font-weight:normal;-inkscape-font-specification:Bitstream Vera Sans"
           y="324.89902"
           x="-252.41159"
           id="tspan4999"
           sodipodi:role="line">u</tspan></text>
      <text
         id="text5013"
         y="330.66553"
         x="-235.7009"
         style="font-size:28px;font-style:normal;font-weight:bold;fill:#000000;fill-opacity:1;stroke:none;stroke-width:1px;stroke-linecap:butt;stroke-linejoin:miter;stroke-opacity:1;font-family:Bitstream Vera Sans;-inkscape-font-specification:Sans"
         xml:space="preserve"><tspan
           style="font-size:16px;font-weight:normal;-inkscape-font-specification:Bitstream Vera Sans"
           y="330.66553"
           x="-235.7009"
           id="tspan5015"
           sodipodi:role="line">3</tspan></text>
    </g>
    <g
       id="g5051"
       transform="translate(2,2)">
      <text
         sodipodi:linespacing="125%"
         id="text5037"
         y="255.89784"
         x="157.56082"
         style="font-size:28px;font-style:normal;font-variant:normal;font-weight:normal;font-stretch:normal;text-align:start;line-height:125%;writing-mode:lr-tb;text-anchor:start;fill:#000000;fill-opacity:1;stroke:none;stroke-width:1px;stroke-linecap:butt;stroke-linejoin:miter;stroke-opacity:1;font-family:Bitstream Vera Sans;-inkscape-font-specification:Bitstream Vera Sans"
         xml:space="preserve"><tspan
           id="tspan5049"
           sodipodi:role="line"
           x="157.56082"
           y="255.89784">v</tspan></text>
      <text
         id="text5041"
         y="262.85736"
         x="175.23615"
         style="font-size:28px;font-style:normal;font-weight:bold;fill:#000000;fill-opacity:1;stroke:none;stroke-width:1px;stroke-linecap:butt;stroke-linejoin:miter;stroke-opacity:1;font-family:Bitstream Vera Sans;-inkscape-font-specification:Sans"
         xml:space="preserve"><tspan
           style="font-size:16px;font-weight:normal;-inkscape-font-specification:Bitstream Vera Sans"
           y="262.85736"
           x="175.23615"
           id="tspan5043"
           sodipodi:role="line">1</tspan></text>
    </g>
    <g
       id="g5073"
       transform="translate(0,-4)">
      <text
         sodipodi:linespacing="125%"
         id="text5059"
         y="26.781567"
         x="369.50919"
         style="font-size:28px;font-style:normal;font-variant:normal;font-weight:normal;font-stretch:normal;text-align:start;line-height:125%;writing-mode:lr-tb;text-anchor:start;fill:#000000;fill-opacity:1;stroke:none;stroke-width:1px;stroke-linecap:butt;stroke-linejoin:miter;stroke-opacity:1;font-family:Sans;-inkscape-font-specification:Sans"
         xml:space="preserve"><tspan
           id="tspan5071"
           sodipodi:role="line"
           x="369.50919"
           y="26.781567">v</tspan></text>
    </g>
    <text
       xml:space="preserve"
       style="font-size:28px;font-style:normal;font-weight:bold;fill:#000000;fill-opacity:1;stroke:none;stroke-width:1px;stroke-linecap:butt;stroke-linejoin:miter;stroke-opacity:1;font-family:Bitstream Vera Sans;-inkscape-font-specification:Sans"
       x="386.21988"
       y="32.548077"
       id="text5063"><tspan
         sodipodi:role="line"
         id="tspan5065"
         x="386.21988"
         y="32.548077"
         style="font-size:16px;font-weight:normal;-inkscape-font-specification:Bitstream Vera Sans">3</tspan></text>
    <g
       id="g5093"
       transform="translate(-12,12)">
      <text
         sodipodi:linespacing="125%"
         id="text5079"
         y="310.90295"
         x="481.28119"
         style="font-size:28px;font-style:normal;font-variant:normal;font-weight:normal;font-stretch:normal;text-align:start;line-height:125%;writing-mode:lr-tb;text-anchor:start;fill:#000000;fill-opacity:1;stroke:none;stroke-width:1px;stroke-linecap:butt;stroke-linejoin:miter;stroke-opacity:1;font-family:Sans;-inkscape-font-specification:Sans"
         xml:space="preserve"><tspan
           id="tspan5091"
           sodipodi:role="line"
           x="481.28119"
           y="310.90295">v</tspan></text>
      <text
         id="text5083"
         y="317.9639"
         x="499.28632"
         style="font-size:28px;font-style:normal;font-weight:bold;fill:#000000;fill-opacity:1;stroke:none;stroke-width:1px;stroke-linecap:butt;stroke-linejoin:miter;stroke-opacity:1;font-family:Bitstream Vera Sans;-inkscape-font-specification:Sans"
         xml:space="preserve"><tspan
           style="font-size:16px;font-weight:normal;-inkscape-font-specification:Bitstream Vera Sans"
           y="317.9639"
           x="499.28632"
           id="tspan5085"
           sodipodi:role="line">2</tspan></text>
    </g>
  </g>
</svg>
