<?xml version="1.0" encoding="UTF-8" standalone="no"?>
<!-- Created with Inkscape (http://www.inkscape.org/) -->
<svg
   xmlns:dc="http://purl.org/dc/elements/1.1/"
   xmlns:cc="http://web.resource.org/cc/"
   xmlns:rdf="http://www.w3.org/1999/02/22-rdf-syntax-ns#"
   xmlns:svg="http://www.w3.org/2000/svg"
   xmlns="http://www.w3.org/2000/svg"
   xmlns:sodipodi="http://sodipodi.sourceforge.net/DTD/sodipodi-0.dtd"
   xmlns:inkscape="http://www.inkscape.org/namespaces/inkscape"
   width="744.09448819"
   height="1052.3622047"
   id="svg2"
   sodipodi:version="0.32"
   inkscape:version="0.45"
   sodipodi:docname="systems-2.svg"
   sodipodi:docbase="/PETSc3/petsc/presentations/invitedTalks/Matt/CDI07/figures"
   inkscape:output_extension="org.inkscape.output.svg.inkscape"
   sodipodi:modified="true">
  <defs
     id="defs4" />
  <sodipodi:namedview
     id="base"
     pagecolor="#ffffff"
     bordercolor="#666666"
     borderopacity="1.0"
     gridtolerance="10000"
     guidetolerance="10"
     objecttolerance="10"
     inkscape:pageopacity="0.0"
     inkscape:pageshadow="2"
     inkscape:zoom="0.77159747"
     inkscape:cx="372.04724"
     inkscape:cy="526.18109"
     inkscape:document-units="px"
     inkscape:current-layer="layer1"
     inkscape:window-width="1398"
     inkscape:window-height="1015"
     inkscape:window-x="0"
     inkscape:window-y="0" />
  <metadata
     id="metadata7">
    <rdf:RDF>
      <cc:Work
         rdf:about="">
        <dc:format>image/svg+xml</dc:format>
        <dc:type
           rdf:resource="http://purl.org/dc/dcmitype/StillImage" />
      </cc:Work>
    </rdf:RDF>
  </metadata>
  <g
     inkscape:label="Layer 1"
     inkscape:groupmode="layer"
     id="layer1">
    <g
       id="g2174"
       transform="translate(-29.808288,-36.288351)">
      <path
         transform="matrix(1.1437255,0,0,1.1870287,-64.858832,-23.786624)"
         d="M 729.65509 144.5054 A 129.60126 92.664894 0 1 1  470.45258,144.5054 A 129.60126 92.664894 0 1 1  729.65509 144.5054 z"
         sodipodi:ry="92.664894"
         sodipodi:rx="129.60126"
         sodipodi:cy="144.5054"
         sodipodi:cx="600.05383"
         id="path2160"
         style="fill:#ffffff;stroke:#000000;stroke-width:2;stroke-miterlimit:4;stroke-dasharray:none;stroke-opacity:1"
         sodipodi:type="arc" />
      <text
         id="text2162"
         y="85.536827"
         x="537.84521"
         style="font-size:32px;font-style:normal;font-weight:normal;fill:#000000;fill-opacity:1;stroke:none;stroke-width:1px;stroke-linecap:butt;stroke-linejoin:miter;stroke-opacity:1;font-family:Bitstream Vera Sans"
         xml:space="preserve"><tspan
           y="85.536827"
           x="537.84521"
           id="tspan2164"
           sodipodi:role="line">Operating</tspan><tspan
           id="tspan2166"
           y="125.53683"
           x="537.84521"
           sodipodi:role="line"> Systems</tspan></text>
      <text
         id="text2168"
         y="174.96169"
         x="537.84515"
         style="font-size:32px;font-style:normal;font-weight:normal;fill:#000000;fill-opacity:1;stroke:none;stroke-width:1px;stroke-linecap:butt;stroke-linejoin:miter;stroke-opacity:1;font-family:Bitstream Vera Sans"
         xml:space="preserve"><tspan
           y="174.96169"
           x="537.84515"
           id="tspan2170"
           sodipodi:role="line">Distributed</tspan><tspan
           id="tspan2172"
           y="214.96169"
           x="537.84515"
           sodipodi:role="line">Computing</tspan></text>
    </g>
    <path
       sodipodi:type="arc"
       style="fill:#ffffff;stroke:#000000;stroke-width:2;stroke-miterlimit:4;stroke-dasharray:none;stroke-opacity:1"
       id="path2185"
       sodipodi:cx="600.05383"
       sodipodi:cy="144.5054"
       sodipodi:rx="129.60126"
       sodipodi:ry="92.664894"
       d="M 729.65509 144.5054 A 129.60126 92.664894 0 1 1  470.45258,144.5054 A 129.60126 92.664894 0 1 1  729.65509 144.5054 z"
       transform="matrix(1.1437255,0,0,1.1870287,-535.95941,-57.482957)" />
    <text
       xml:space="preserve"
       style="font-size:32px;font-style:normal;font-weight:normal;fill:#000000;fill-opacity:1;stroke:none;stroke-width:1px;stroke-linecap:butt;stroke-linejoin:miter;stroke-opacity:1;font-family:Bitstream Vera Sans"
       x="70.632675"
       y="50.544479"
       id="text2187"><tspan
         sodipodi:role="line"
         id="tspan2189"
         x="70.632675"
         y="50.544479">Database</tspan><tspan
         sodipodi:role="line"
         x="70.632675"
         y="90.544479"
         id="tspan2191"> Systems</tspan></text>
    <text
       xml:space="preserve"
       style="font-size:32px;font-style:normal;font-weight:normal;fill:#000000;fill-opacity:1;stroke:none;stroke-width:1px;stroke-linecap:butt;stroke-linejoin:miter;stroke-opacity:1;font-family:Bitstream Vera Sans"
       x="58.968502"
       y="152.92946"
       id="text2193"><tspan
         sodipodi:role="line"
         x="58.968502"
         y="152.92946"
         id="tspan2197">Datamining</tspan></text>
    <g
       id="g2199"
       transform="translate(-248.18642,173.66567)">
      <path
         transform="matrix(1.1437255,0,0,1.1870287,-64.858832,-23.786624)"
         d="M 729.65509 144.5054 A 129.60126 92.664894 0 1 1  470.45258,144.5054 A 129.60126 92.664894 0 1 1  729.65509 144.5054 z"
         sodipodi:ry="92.664894"
         sodipodi:rx="129.60126"
         sodipodi:cy="144.5054"
         sodipodi:cx="600.05383"
         id="path2201"
         style="fill:#ffffff;stroke:#000000;stroke-width:2;stroke-miterlimit:4;stroke-dasharray:none;stroke-opacity:1"
         sodipodi:type="arc" />
      <text
         id="text2203"
         y="92.016891"
         x="517.10901"
         style="font-size:32px;font-style:normal;font-weight:normal;fill:#000000;fill-opacity:1;stroke:none;stroke-width:1px;stroke-linecap:butt;stroke-linejoin:miter;stroke-opacity:1;font-family:Bitstream Vera Sans"
         xml:space="preserve"><tspan
           y="92.016891"
           x="517.10901"
           id="tspan2205"
           sodipodi:role="line">Programming</tspan><tspan
           id="tspan2207"
           y="132.01689"
           x="517.10901"
           sodipodi:role="line">  Languages</tspan></text>
    </g>
  </g>
</svg>
