#FIG 3.2
Landscape
Center
Metric
A4      
100.00
Single
-2
1200 2
6 3870 4095 4365 5580
6 3896 4121 4230 4455
1 3 0 1 0 17 50 -1 20 0.000 1 0.0000 4063 4288 160 160 4063 4288 4223 4288
4 0 0 50 -1 24 11 0.0000 4 15 60 4021 4348 -\001
-6
6 4005 5175 4365 5580
1 3 0 1 0 17 50 -1 20 0.000 1 0.0000 4193 5379 160 160 4193 5379 4353 5379
4 0 0 50 -1 24 11 0.0000 4 75 90 4169 5437 +\001
-6
2 1 0 1 5 7 50 -1 -1 0.000 0 0 -1 1 0 2
	1 1 2.00 40.50 97.50
	 4073 4457 4140 5175
-6
6 2700 4095 3105 5580
6 2745 4095 3105 4500
1 3 0 1 0 17 50 -1 20 0.000 1 0.0000 2933 4299 160 160 2933 4299 3093 4299
4 0 0 50 -1 24 11 0.0000 4 75 90 2909 4357 +\001
-6
6 2739 5210 3073 5544
1 3 0 1 0 17 50 -1 20 0.000 1 0.0000 2906 5377 160 160 2906 5377 3066 5377
4 0 0 50 -1 24 11 0.0000 4 15 60 2864 5437 -\001
-6
2 1 0 1 5 7 50 -1 -1 0.000 0 0 -1 1 0 2
	1 1 2.00 40.50 97.50
	 2948 4457 2880 5175
-6
1 4 0 1 4 4 50 -1 20 0.000 1 0.0000 3375 270 51 51 3324 270 3426 270
1 4 0 1 4 4 50 -1 20 0.000 1 0.0000 3375 3645 51 51 3324 3645 3426 3645
1 4 0 1 4 4 50 -1 20 0.000 1 0.0000 3645 270 51 51 3594 270 3696 270
1 4 0 1 4 4 50 -1 20 0.000 1 0.0000 3651 3645 51 51 3600 3645 3702 3645
2 2 1 1 0 7 50 -1 -1 4.000 0 0 -1 0 0 5
	 90 45 3465 45 3465 3915 90 3915 90 45
2 2 1 1 0 7 50 -1 -1 3.000 0 0 -1 0 0 5
	 3555 45 6975 45 6975 3915 3555 3915 3555 45
2 3 0 1 0 7 50 -1 -1 0.000 0 0 0 0 0 4
	 3371 3688 3375 270 405 1980 3371 3688
2 3 0 1 0 7 50 -1 -1 0.000 0 0 0 0 0 4
	 3644 3688 3648 266 6610 1980 3644 3688
4 0 17 50 -1 0 12 0.0000 4 135 90 3690 3240 1\001
4 0 4 50 -1 0 12 0.0000 4 135 90 3285 225 0\001
4 0 4 50 -1 0 12 0.0000 4 135 90 3285 3870 5\001
4 0 4 50 -1 0 12 0.0000 4 135 90 3690 3870 0\001
4 0 4 50 -1 0 12 0.0000 4 135 90 3735 225 6\001
4 0 1 50 -1 0 12 0.0000 4 135 525 405 360 chart 0\001
4 0 1 50 -1 0 12 0.0000 4 135 525 6075 360 chart 1\001
4 0 17 50 -1 0 20 0.0000 4 120 150 3195 2070 +\001
4 0 17 50 -1 0 20 0.0000 4 30 90 3735 2070 -\001
