#FIG 3.2  Produced by xfig version 3.2.5-alpha5
Landscape
Center
Metric
A4      
100.00
Single
-2
1200 2
6 405 1665 12510 2520
6 405 1687 1170 2497
1 3 0 1 0 1 55 -1 20 0.000 1 0.0000 807 2092 363 363 807 2092 1170 2092
4 0 7 50 -1 0 16 0.0000 4 195 135 765 2182 8\001
-6
6 4683 1687 5448 2497
1 3 0 1 0 1 55 -1 20 0.000 1 0.0000 5055 2092 363 363 5055 2092 5418 2092
4 1 7 50 -1 0 16 0.0000 4 195 270 5013 2182 11\001
-6
6 3272 1687 4037 2497
1 3 0 1 0 1 55 -1 20 0.000 1 0.0000 3639 2092 363 363 3639 2092 4002 2092
4 1 7 50 -1 0 16 0.0000 4 195 270 3597 2182 10\001
-6
6 1816 1687 2626 2497
1 3 0 1 0 1 55 -1 20 0.000 1 0.0000 2223 2092 363 363 2223 2092 2586 2092
4 0 7 50 -1 0 16 0.0000 4 195 135 2181 2182 9\001
-6
6 6094 1687 6859 2497
1 3 0 1 0 1 55 -1 20 0.000 1 0.0000 6466 2092 363 363 6466 2092 6829 2092
4 1 7 50 -1 0 16 0.0000 4 195 270 6424 2182 12\001
-6
6 7505 1687 8270 2497
1 3 0 1 0 1 55 -1 20 0.000 1 0.0000 7877 2092 363 363 7877 2092 8240 2092
4 1 7 50 -1 0 16 0.0000 4 195 270 7835 2182 13\001
-6
6 8916 1687 9681 2497
1 3 0 1 0 1 55 -1 20 0.000 1 0.0000 9288 2092 363 363 9288 2092 9651 2092
4 1 7 50 -1 0 16 0.0000 4 195 270 9246 2182 14\001
-6
6 10327 1687 11092 2497
1 3 0 1 0 1 55 -1 20 0.000 1 0.0000 10699 2092 363 363 10699 2092 11062 2092
4 1 7 50 -1 0 16 0.0000 4 195 270 10657 2182 15\001
-6
6 11738 1687 12503 2497
1 3 0 1 0 1 55 -1 20 0.000 1 0.0000 12110 2092 363 363 12110 2092 12473 2092
4 1 7 50 -1 0 16 0.0000 4 195 270 12068 2182 16\001
-6
-6
6 270 360 12555 765
6 270 360 1260 765
6 270 360 765 765
2 2 0 1 0 5 50 -1 20 0.000 0 0 -1 0 0 5
	 270 404 765 404 765 742 270 742 270 404
4 1 7 50 -1 0 16 0.0000 4 195 330 495 674 0.5\001
-6
6 765 382 1260 742
2 2 0 1 0 5 50 -1 20 0.000 0 0 -1 0 0 5
	 765 404 1260 404 1260 742 765 742 765 404
4 1 7 50 -1 0 16 0.0000 4 195 330 990 674 0.0\001
-6
-6
6 1647 360 2682 765
6 1663 382 2158 742
2 2 0 1 0 5 50 -1 20 0.000 0 0 -1 0 0 5
	 1663 404 2158 404 2158 742 1663 742 1663 404
4 1 7 50 -1 0 16 0.0000 4 195 330 1888 674 0.0\001
-6
6 2142 360 2682 765
2 2 0 1 0 5 50 -1 20 0.000 0 0 -1 0 0 5
	 2158 404 2653 404 2653 742 2158 742 2158 404
4 1 7 50 -1 0 16 0.0000 4 195 330 2383 674 0.5\001
-6
-6
6 10098 360 11133 765
6 10098 360 10638 765
2 2 0 1 0 5 50 -1 20 0.000 0 0 -1 0 0 5
	 10120 404 10615 404 10615 742 10120 742 10120 404
4 1 7 50 -1 0 16 0.0000 4 195 330 10345 674 0.5\001
-6
6 10593 360 11133 765
2 2 0 1 0 5 50 -1 20 0.000 0 0 -1 0 0 5
	 10615 404 11110 404 11110 742 10615 742 10615 404
4 1 7 50 -1 0 16 0.0000 4 195 330 10840 674 1.0\001
-6
-6
6 11520 360 12555 765
6 11520 360 12060 765
2 2 0 1 0 5 50 -1 20 0.000 0 0 -1 0 0 5
	 11558 404 12053 404 12053 742 11558 742 11558 404
4 1 7 50 -1 0 16 0.0000 4 195 330 11783 674 1.0\001
-6
6 12015 360 12555 765
2 2 0 1 0 5 50 -1 20 0.000 0 0 -1 0 0 5
	 12053 404 12548 404 12548 742 12053 742 12053 404
4 1 7 50 -1 0 16 0.0000 4 195 330 12278 674 1.0\001
-6
-6
6 3069 382 4059 742
6 3069 382 3564 742
2 2 0 1 0 5 50 -1 20 0.000 0 0 -1 0 0 5
	 3069 404 3564 404 3564 742 3069 742 3069 404
4 1 7 50 -1 0 16 0.0000 4 195 330 3294 674 0.0\001
-6
6 3564 382 4059 742
2 2 0 1 0 5 50 -1 20 0.000 0 0 -1 0 0 5
	 3564 404 4059 404 4059 742 3564 742 3564 404
4 1 7 50 -1 0 16 0.0000 4 195 330 3789 674 0.0\001
-6
-6
6 4446 360 9711 765
6 4446 360 5481 765
6 4446 360 4986 765
2 2 0 1 0 5 50 -1 20 0.000 0 0 -1 0 0 5
	 4478 404 4973 404 4973 742 4478 742 4478 404
4 1 7 50 -1 0 16 0.0000 4 195 330 4703 674 0.5\001
-6
6 4941 360 5481 765
2 2 0 1 0 5 50 -1 20 0.000 0 0 -1 0 0 5
	 4973 404 5468 404 5468 742 4973 742 4973 404
4 1 7 50 -1 0 16 0.0000 4 195 330 5198 674 0.5\001
-6
-6
6 5886 360 6921 765
6 5886 360 6426 765
2 2 0 1 0 5 50 -1 20 0.000 0 0 -1 0 0 5
	 5889 404 6384 404 6384 742 5889 742 5889 404
4 1 7 50 -1 0 16 0.0000 4 195 330 6114 674 1.0\001
-6
6 6384 382 6879 742
2 2 0 1 0 5 50 -1 20 0.000 0 0 -1 0 0 5
	 6384 404 6879 404 6879 742 6384 742 6384 404
4 1 7 50 -1 0 16 0.0000 4 195 330 6609 674 0.0\001
-6
-6
6 7281 360 8316 765
6 7281 360 7821 765
2 2 0 1 0 5 50 -1 20 0.000 0 0 -1 0 0 5
	 7300 404 7795 404 7795 742 7300 742 7300 404
4 1 7 50 -1 0 16 0.0000 4 195 330 7525 674 1.0\001
-6
6 7776 360 8316 765
2 2 0 1 0 5 50 -1 20 0.000 0 0 -1 0 0 5
	 7795 404 8290 404 8290 742 7795 742 7795 404
4 1 7 50 -1 0 16 0.0000 4 195 330 8020 674 0.5\001
-6
-6
6 8676 360 9711 765
6 8711 382 9206 742
2 2 0 1 0 5 50 -1 20 0.000 0 0 -1 0 0 5
	 8711 404 9206 404 9206 742 8711 742 8711 404
4 1 7 50 -1 0 16 0.0000 4 195 330 8936 674 0.0\001
-6
6 9171 360 9711 765
2 2 0 1 0 5 50 -1 20 0.000 0 0 -1 0 0 5
	 9206 404 9701 404 9701 742 9206 742 9206 404
4 1 7 50 -1 0 16 0.0000 4 195 330 9431 674 1.0\001
-6
-6
-6
-6
2 1 0 1 0 7 50 -1 -1 0.000 0 0 -1 1 0 2
	1 1 1.00 60.00 120.00
	 495 765 675 1755
2 1 0 1 0 7 50 -1 -1 0.000 0 0 -1 1 0 2
	1 1 1.00 60.00 120.00
	 990 765 855 1710
2 1 0 1 0 7 50 -1 -1 0.000 0 0 -1 1 0 2
	1 1 1.00 60.00 120.00
	 1890 765 2070 1755
2 1 0 1 0 7 50 -1 -1 0.000 0 0 -1 1 0 2
	1 1 1.00 60.00 120.00
	 2430 765 2295 1710
2 1 0 1 0 7 50 -1 -1 0.000 0 0 -1 1 0 2
	1 1 1.00 60.00 120.00
	 3285 720 3510 1755
2 1 0 1 0 7 50 -1 -1 0.000 0 0 -1 1 0 2
	1 1 1.00 60.00 120.00
	 3780 765 3690 1710
2 1 0 1 0 7 50 -1 -1 0.000 0 0 -1 1 0 2
	1 1 1.00 60.00 120.00
	 4770 720 4950 1710
2 1 0 1 0 7 50 -1 -1 0.000 0 0 -1 1 0 2
	1 1 1.00 60.00 120.00
	 5220 765 5085 1710
2 1 0 1 0 7 50 -1 -1 0.000 0 0 -1 1 0 2
	1 1 1.00 60.00 120.00
	 6120 765 6345 1755
2 1 0 1 0 7 50 -1 -1 0.000 0 0 -1 1 0 2
	1 1 1.00 60.00 120.00
	 6615 720 6480 1710
2 1 0 1 0 7 50 -1 -1 0.000 0 0 -1 1 0 2
	1 1 1.00 60.00 120.00
	 7560 765 7740 1710
2 1 0 1 0 7 50 -1 -1 0.000 0 0 -1 1 0 2
	1 1 1.00 60.00 120.00
	 8055 765 7965 1710
2 1 0 1 0 7 50 -1 -1 0.000 0 0 -1 1 0 2
	1 1 1.00 60.00 120.00
	 8955 765 9135 1755
2 1 0 1 0 7 50 -1 -1 0.000 0 0 -1 1 0 2
	1 1 1.00 60.00 120.00
	 9495 765 9315 1710
2 1 0 1 0 7 50 -1 -1 0.000 0 0 -1 1 0 2
	1 1 1.00 60.00 120.00
	 10395 765 10575 1710
2 1 0 1 0 7 50 -1 -1 0.000 0 0 -1 1 0 2
	1 1 1.00 60.00 120.00
	 10845 765 10755 1710
2 1 0 1 0 7 50 -1 -1 0.000 0 0 -1 1 0 2
	1 1 1.00 60.00 120.00
	 11790 720 11970 1710
2 1 0 1 0 7 50 -1 -1 0.000 0 0 -1 1 0 2
	1 1 1.00 60.00 120.00
	 12330 765 12150 1710
