<?xml version="1.0" encoding="UTF-8" standalone="no"?>
<!-- Created with Inkscape (http://www.inkscape.org/) -->
<svg
   xmlns:dc="http://purl.org/dc/elements/1.1/"
   xmlns:cc="http://web.resource.org/cc/"
   xmlns:rdf="http://www.w3.org/1999/02/22-rdf-syntax-ns#"
   xmlns:svg="http://www.w3.org/2000/svg"
   xmlns="http://www.w3.org/2000/svg"
   xmlns:sodipodi="http://sodipodi.sourceforge.net/DTD/sodipodi-0.dtd"
   xmlns:inkscape="http://www.inkscape.org/namespaces/inkscape"
   width="792pt"
   height="612pt"
   id="svg37658"
   sodipodi:version="0.32"
   inkscape:version="0.45.1"
   sodipodi:docbase="/dynamics/Presentations/figures/Design"
   sodipodi:docname="ASieveIco.svg"
   inkscape:output_extension="org.inkscape.output.svg.inkscape">
  <defs
     id="defs37660">
    <marker
       inkscape:stockid="Arrow2Lend"
       orient="auto"
       refY="0.0"
       refX="0.0"
       id="Arrow2Lend"
       style="overflow:visible;">
      <path
         id="path5188"
         style="font-size:12.0;fill-rule:evenodd;stroke-width:0.62500000;stroke-linejoin:round;"
         d="M 8.7185878,4.0337352 L -2.2072895,0.016013256 L 8.7185884,-4.0017078 C 6.9730900,-1.6296469 6.9831476,1.6157441 8.7185878,4.0337352 z "
         transform="scale(1.1) rotate(180) translate(1,0)" />
    </marker>
  </defs>
  <sodipodi:namedview
     inkscape:document-units="in"
     pagecolor="#ffffff"
     bordercolor="#666666"
     borderopacity="1.0"
     inkscape:pageopacity="0.0"
     inkscape:pageshadow="2"
     inkscape:zoom="1.2771242"
     inkscape:cx="495.00002"
     inkscape:cy="740.44602"
     inkscape:current-layer="layer1"
     id="namedview37662"
     inkscape:window-width="1598"
     inkscape:window-height="1176"
     inkscape:window-x="0"
     inkscape:window-y="0" />
  <metadata
     id="metadata37664">
    <rdf:RDF>
      <cc:Work
         rdf:about="">
        <dc:format>image/svg+xml</dc:format>
        <dc:type
           rdf:resource="http://purl.org/dc/dcmitype/StillImage" />
      </cc:Work>
    </rdf:RDF>
  </metadata>
  <g
     inkscape:label="Layer 1"
     inkscape:groupmode="layer"
     id="layer1">
    <path
       style="fill:none;fill-rule:evenodd;stroke:#000000;stroke-width:1;stroke-linecap:butt;stroke-linejoin:miter;stroke-miterlimit:4;stroke-dasharray:1, 2;stroke-dashoffset:0;stroke-opacity:1"
       d="M 287.22284,650.81866 L 287.22284,721.66673"
       id="path18049"
       inkscape:connector-type="polyline"
       sodipodi:nodetypes="cc" />
    <path
       style="opacity:1;fill:#000010;fill-opacity:0;fill-rule:nonzero;stroke-width:1;stroke-miterlimit:4;stroke-dasharray:1, 2;stroke-dashoffset:0"
       id="path29264"
       d="M 1022.4988,238.39366 C 1022.6108,233.37735 1022.6945,228.36002 1022.7669,223.34284 C 1022.8353,213.10943 1022.8547,202.87533 1022.8909,192.64155 C 1022.7431,182.89436 1022.965,173.14803 1024.0117,163.45433 C 1024.6952,157.01945 1025.7095,150.6277 1027.0667,144.3054 C 1027.8636,141.58339 1028.7348,138.88482 1029.603,136.18506 L 1041.7258,126.48606 C 1040.8084,129.16102 1039.9168,131.84054 1039.1065,134.55032 C 1037.4414,140.91582 1036.1546,147.38323 1035.4119,153.92998 C 1034.344,163.60803 1034.168,173.34375 1034.0914,183.07544 C 1034.1276,193.23862 1034.1469,203.40214 1034.2154,213.56494 C 1034.2874,218.42945 1034.3708,223.29415 1034.4835,228.15773 L 1022.4988,238.39366 z " />
    <g
       id="g15526">
      <g
         style="fill:#ff00ff"
         transform="translate(-393.41743,45.914229)"
         id="g122744">
        <text
           xml:space="preserve"
           style="font-size:32px;font-style:normal;font-variant:normal;font-weight:bold;font-stretch:normal;text-align:start;line-height:125%;writing-mode:lr-tb;text-anchor:start;fill:#ff00ff;fill-opacity:1;stroke:none;stroke-width:1px;stroke-linecap:butt;stroke-linejoin:miter;stroke-opacity:1;font-family:Bitstream Vera Sans"
           x="437.88449"
           y="30.697189"
           id="text122746"
           sodipodi:linespacing="125%"><tspan
             sodipodi:role="line"
             id="tspan122748"
             x="437.88449"
             y="30.697189">x</tspan></text>
      </g>
      <rect
         y="27.447886"
         x="130.72795"
         height="83.781982"
         width="88.480042"
         id="rect122750"
         style="opacity:0.25;fill:#ffff00;fill-opacity:1;fill-rule:nonzero;stroke-width:1.35000002;stroke-linejoin:round;stroke-miterlimit:4;stroke-dasharray:none;stroke-dashoffset:0" />
      <text
         xml:space="preserve"
         style="font-size:32px;font-style:normal;font-variant:normal;font-weight:bold;font-stretch:normal;text-align:start;line-height:125%;writing-mode:lr-tb;text-anchor:start;fill:#00ff00;fill-opacity:1;stroke:none;stroke-width:1px;stroke-linecap:butt;stroke-linejoin:miter;stroke-opacity:1;font-family:Bitstream Vera Sans"
         x="261.38437"
         y="62.030159"
         id="text122760"
         sodipodi:linespacing="125%"><tspan
           sodipodi:role="line"
           id="tspan122762"
           x="261.38437"
           y="62.030159">x</tspan></text>
      <text
         xml:space="preserve"
         style="font-size:32px;font-style:normal;font-variant:normal;font-weight:bold;font-stretch:normal;text-align:start;line-height:125%;writing-mode:lr-tb;text-anchor:start;fill:#00ff00;fill-opacity:1;stroke:none;stroke-width:1px;stroke-linecap:butt;stroke-linejoin:miter;stroke-opacity:1;font-family:Bitstream Vera Sans"
         x="262.16733"
         y="104.31266"
         id="text122764"
         sodipodi:linespacing="125%"><tspan
           sodipodi:role="line"
           id="tspan122766"
           x="262.16733"
           y="104.31266">x</tspan></text>
      <path
         inkscape:connector-type="polyline"
         id="path122768"
         d="M 75.134276,68.598329 L 172.22742,67.815319"
         style="fill:none;fill-rule:evenodd;stroke:#000000;stroke-width:1px;stroke-linecap:butt;stroke-linejoin:miter;marker-end:url(#Arrow2Lend);stroke-opacity:1" />
      <path
         sodipodi:nodetypes="cc"
         inkscape:connector-type="polyline"
         id="path122774"
         d="M 221.66074,68.186299 L 258.46216,52.761399"
         style="fill:none;fill-rule:evenodd;stroke:#000000;stroke-width:1px;stroke-linecap:butt;stroke-linejoin:miter;marker-end:url(#Arrow2Lend);stroke-opacity:1" />
      <path
         sodipodi:nodetypes="cc"
         inkscape:connector-type="polyline"
         id="path122776"
         d="M 220.87773,70.535329 L 256.89615,91.128849"
         style="fill:none;fill-rule:evenodd;stroke:#000000;stroke-width:1px;stroke-linecap:butt;stroke-linejoin:miter;marker-end:url(#Arrow2Lend);stroke-opacity:1" />
    </g>
  </g>
</svg>
