<?xml version="1.0" encoding="UTF-8" standalone="no"?>
<!-- Created with Inkscape (http://www.inkscape.org/) -->
<svg
   xmlns:dc="http://purl.org/dc/elements/1.1/"
   xmlns:cc="http://web.resource.org/cc/"
   xmlns:rdf="http://www.w3.org/1999/02/22-rdf-syntax-ns#"
   xmlns:svg="http://www.w3.org/2000/svg"
   xmlns="http://www.w3.org/2000/svg"
   xmlns:sodipodi="http://sodipodi.sourceforge.net/DTD/sodipodi-0.dtd"
   xmlns:inkscape="http://www.inkscape.org/namespaces/inkscape"
   width="792pt"
   height="612pt"
   id="svg37658"
   sodipodi:version="0.32"
   inkscape:version="0.45.1"
   sodipodi:docbase="/dynamics/Presentations/figures/Design"
   sodipodi:docname="CartesianSeenSetTraversal.svg"
   inkscape:output_extension="org.inkscape.output.svg.inkscape">
  <defs
     id="defs37660">
    <marker
       inkscape:stockid="Arrow2Lend"
       orient="auto"
       refY="0.0"
       refX="0.0"
       id="Arrow2Lend"
       style="overflow:visible;">
      <path
         id="path5188"
         style="font-size:12.0;fill-rule:evenodd;stroke-width:0.62500000;stroke-linejoin:round;"
         d="M 8.7185878,4.0337352 L -2.2072895,0.016013256 L 8.7185884,-4.0017078 C 6.9730900,-1.6296469 6.9831476,1.6157441 8.7185878,4.0337352 z "
         transform="scale(1.1) rotate(180) translate(1,0)" />
    </marker>
  </defs>
  <sodipodi:namedview
     inkscape:document-units="in"
     pagecolor="#ffffff"
     bordercolor="#666666"
     borderopacity="1.0"
     inkscape:pageopacity="0.0"
     inkscape:pageshadow="2"
     inkscape:zoom="1.2771242"
     inkscape:cx="495.00002"
     inkscape:cy="326.65027"
     inkscape:current-layer="layer1"
     id="namedview37662"
     inkscape:window-width="1598"
     inkscape:window-height="1176"
     inkscape:window-x="0"
     inkscape:window-y="0" />
  <metadata
     id="metadata37664">
    <rdf:RDF>
      <cc:Work
         rdf:about="">
        <dc:format>image/svg+xml</dc:format>
        <dc:type
           rdf:resource="http://purl.org/dc/dcmitype/StillImage" />
      </cc:Work>
    </rdf:RDF>
  </metadata>
  <g
     inkscape:label="Layer 1"
     inkscape:groupmode="layer"
     id="layer1">
    <rect
       style="fill:#ffc8c8;fill-opacity:1;fill-rule:nonzero"
       id="rect116032"
       width="167.6566"
       height="42.986473"
       x="66.182449"
       y="524.57922" />
    <path
       style="opacity:1;fill:#000010;fill-opacity:0;fill-rule:nonzero;stroke-width:1;stroke-miterlimit:4;stroke-dasharray:1, 2;stroke-dashoffset:0"
       id="path29264"
       d="M 1022.4988,238.39366 C 1022.6108,233.37735 1022.6945,228.36002 1022.7669,223.34284 C 1022.8353,213.10943 1022.8547,202.87533 1022.8909,192.64155 C 1022.7431,182.89436 1022.965,173.14803 1024.0117,163.45433 C 1024.6952,157.01945 1025.7095,150.6277 1027.0667,144.3054 C 1027.8636,141.58339 1028.7348,138.88482 1029.603,136.18506 L 1041.7258,126.48606 C 1040.8084,129.16102 1039.9168,131.84054 1039.1065,134.55032 C 1037.4414,140.91582 1036.1546,147.38323 1035.4119,153.92998 C 1034.344,163.60803 1034.168,173.34375 1034.0914,183.07544 C 1034.1276,193.23862 1034.1469,203.40214 1034.2154,213.56494 C 1034.2874,218.42945 1034.3708,223.29415 1034.4835,228.15773 L 1022.4988,238.39366 z " />
    <path
       style="fill:none;fill-rule:evenodd;stroke:#000000;stroke-width:1.35000002;stroke-linecap:butt;stroke-linejoin:miter;stroke-miterlimit:4;stroke-dasharray:none;stroke-dashoffset:0;stroke-opacity:1"
       d="M 114.46055,528.13058 L 114.46055,563.69277"
       id="path116038"
       inkscape:connector-type="polyline"
       sodipodi:nodetypes="cc" />
    <g
       id="g116040"
       transform="translate(-271.06901,526.84195)">
      <text
         sodipodi:linespacing="125%"
         id="text116042"
         y="30.697189"
         x="437.88449"
         style="font-size:32px;font-style:normal;font-variant:normal;font-weight:bold;font-stretch:normal;text-align:start;line-height:125%;writing-mode:lr-tb;text-anchor:start;fill:#00ff00;fill-opacity:1;stroke:none;stroke-width:1px;stroke-linecap:butt;stroke-linejoin:miter;stroke-opacity:1;font-family:Bitstream Vera Sans"
         xml:space="preserve"><tspan
           y="30.697189"
           x="437.88449"
           id="tspan116044"
           sodipodi:role="line">1</tspan></text>
    </g>
    <path
       style="fill:none;fill-rule:evenodd;stroke:#000000;stroke-width:1.35000002;stroke-linecap:butt;stroke-linejoin:miter;stroke-miterlimit:4;stroke-dasharray:none;stroke-dashoffset:0;stroke-opacity:1"
       d="M 158.8869,527.68671 L 158.8869,563.2489"
       id="path116050"
       inkscape:connector-type="polyline"
       sodipodi:nodetypes="cc" />
    <g
       id="g116052"
       transform="translate(-228.20867,527.9641)">
      <text
         sodipodi:linespacing="125%"
         id="text116054"
         y="30.697189"
         x="437.88449"
         style="font-size:32px;font-style:normal;font-variant:normal;font-weight:bold;font-stretch:normal;text-align:start;line-height:125%;writing-mode:lr-tb;text-anchor:start;fill:#00ff00;fill-opacity:1;stroke:none;stroke-width:1px;stroke-linecap:butt;stroke-linejoin:miter;stroke-opacity:1;font-family:Bitstream Vera Sans"
         xml:space="preserve"><tspan
           y="30.697189"
           x="437.88449"
           id="tspan116056"
           sodipodi:role="line">2</tspan></text>
    </g>
    <path
       style="fill:none;fill-rule:evenodd;stroke:#000000;stroke-width:1.35000002;stroke-linecap:butt;stroke-linejoin:miter;stroke-miterlimit:4;stroke-dasharray:none;stroke-dashoffset:0;stroke-opacity:1"
       d="M 200.04752,526.38412 L 200.04752,561.94631"
       id="path116068"
       inkscape:connector-type="polyline"
       sodipodi:nodetypes="cc" />
    <g
       id="g116080"
       transform="translate(-371.36223,525.92565)"
       style="fill:#ff0000">
      <text
         sodipodi:linespacing="125%"
         id="text116082"
         y="30.697189"
         x="437.88449"
         style="font-size:32px;font-style:normal;font-variant:normal;font-weight:bold;font-stretch:normal;text-align:start;line-height:125%;writing-mode:lr-tb;text-anchor:start;fill:#ff0000;fill-opacity:1;stroke:none;stroke-width:1px;stroke-linecap:butt;stroke-linejoin:miter;stroke-opacity:1;font-family:Bitstream Vera Sans"
         xml:space="preserve"><tspan
           y="30.697189"
           x="437.88449"
           id="tspan116084"
           sodipodi:role="line">41</tspan></text>
    </g>
    <g
       id="g117981"
       transform="translate(-330.34859,526.49961)"
       style="fill:#ff00ff">
      <text
         sodipodi:linespacing="125%"
         id="text117983"
         y="30.697189"
         x="443.88449"
         style="font-size:32px;font-style:normal;font-variant:normal;font-weight:bold;font-stretch:normal;text-align:start;line-height:125%;writing-mode:lr-tb;text-anchor:start;fill:#ff00ff;fill-opacity:1;stroke:none;stroke-width:1px;stroke-linecap:butt;stroke-linejoin:miter;stroke-opacity:1;font-family:Bitstream Vera Sans"
         xml:space="preserve"><tspan
           y="30.697189"
           x="443.88449"
           id="tspan117985"
           sodipodi:role="line">17</tspan></text>
    </g>
    <path
       style="fill:none;fill-rule:evenodd;stroke:#000000;stroke-width:1.04697645px;stroke-linecap:butt;stroke-linejoin:miter;stroke-opacity:1;display:inline"
       d="M 134.70107,51.702097 L 135.4371,430.63157"
       id="path119521"
       inkscape:connector-type="polyline" />
    <path
       style="fill:none;fill-rule:evenodd;stroke:#000000;stroke-width:1.05011833px;stroke-linecap:butt;stroke-linejoin:miter;stroke-opacity:1;display:inline"
       d="M 249.41349,51.312164 L 250.14638,434.15355"
       id="path120492"
       inkscape:connector-type="polyline" />
    <path
       style="fill:none;fill-rule:evenodd;stroke:#000000;stroke-width:1px;stroke-linecap:butt;stroke-linejoin:miter;stroke-opacity:1"
       d="M 228.63869,192.62027 L 228.63869,192.62027"
       id="path120494"
       inkscape:connector-type="polyline" />
    <path
       style="fill:none;fill-rule:evenodd;stroke:#000000;stroke-width:1.04634416px;stroke-linecap:butt;stroke-linejoin:miter;stroke-opacity:1;display:inline"
       d="M 365.29697,54.442312 L 366.03364,432.58942"
       id="path120496"
       inkscape:connector-type="polyline" />
    <path
       style="fill:none;fill-rule:evenodd;stroke:#000000;stroke-width:1.05011833px;stroke-linecap:butt;stroke-linejoin:miter;stroke-opacity:1;display:inline"
       d="M 482.75024,54.4442 L 483.48313,437.2856"
       id="path120498"
       inkscape:connector-type="polyline" />
    <path
       style="fill:none;fill-rule:evenodd;stroke:#000000;stroke-width:1.07730901px;stroke-linecap:butt;stroke-linejoin:miter;stroke-opacity:1"
       d="M 121.40507,89.224395 L 508.91732,85.386659"
       id="path120500"
       inkscape:connector-type="polyline" />
    <path
       style="fill:none;fill-rule:evenodd;stroke:#000000;stroke-width:1.06964374px;stroke-linecap:butt;stroke-linejoin:miter;stroke-opacity:1"
       d="M 124.53328,197.67501 L 505.78912,193.8296"
       id="path120502"
       inkscape:connector-type="polyline" />
    <path
       style="fill:none;fill-rule:evenodd;stroke:#000000;stroke-width:1.06771505px;stroke-linecap:butt;stroke-linejoin:miter;stroke-opacity:1"
       d="M 130.01339,420.05058 L 509.70514,416.20325"
       id="path120508"
       inkscape:connector-type="polyline" />
    <path
       style="fill:none;fill-rule:evenodd;stroke:#000000;stroke-width:1.06771493px;stroke-linecap:butt;stroke-linejoin:miter;stroke-opacity:1"
       d="M 124.53233,308.86327 L 504.22408,305.01595"
       id="path120510"
       inkscape:connector-type="polyline" />
    <g
       id="g120513"
       transform="translate(-311.91081,399.8768)">
      <text
         sodipodi:linespacing="125%"
         id="text120515"
         y="30.697189"
         x="437.88449"
         style="font-size:32px;font-style:normal;font-variant:normal;font-weight:bold;font-stretch:normal;text-align:start;line-height:125%;writing-mode:lr-tb;text-anchor:start;fill:#00ff00;fill-opacity:1;stroke:none;stroke-width:1px;stroke-linecap:butt;stroke-linejoin:miter;stroke-opacity:1;font-family:Bitstream Vera Sans"
         xml:space="preserve"><tspan
           y="30.697189"
           x="437.88449"
           id="tspan120517"
           sodipodi:role="line">1</tspan></text>
    </g>
    <g
       id="g120519"
       transform="translate(-198.37447,399.8768)">
      <text
         sodipodi:linespacing="125%"
         id="text120521"
         y="30.697189"
         x="437.88449"
         style="font-size:32px;font-style:normal;font-variant:normal;font-weight:bold;font-stretch:normal;text-align:start;line-height:125%;writing-mode:lr-tb;text-anchor:start;fill:#00ff00;fill-opacity:1;stroke:none;stroke-width:1px;stroke-linecap:butt;stroke-linejoin:miter;stroke-opacity:1;font-family:Bitstream Vera Sans"
         xml:space="preserve"><tspan
           y="30.697189"
           x="437.88449"
           id="tspan120523"
           sodipodi:role="line">2</tspan></text>
    </g>
    <g
       id="g120525"
       transform="translate(-83.272117,399.8768)">
      <text
         sodipodi:linespacing="125%"
         id="text120527"
         y="30.697189"
         x="437.88449"
         style="font-size:32px;font-style:normal;font-variant:normal;font-weight:bold;font-stretch:normal;text-align:start;line-height:125%;writing-mode:lr-tb;text-anchor:start;fill:#00ff00;fill-opacity:1;stroke:none;stroke-width:1px;stroke-linecap:butt;stroke-linejoin:miter;stroke-opacity:1;font-family:Bitstream Vera Sans"
         xml:space="preserve"><tspan
           y="30.697189"
           x="437.88449"
           id="tspan120529"
           sodipodi:role="line">3</tspan></text>
    </g>
    <g
       id="g120531"
       transform="translate(32.613246,395.17875)">
      <text
         sodipodi:linespacing="125%"
         id="text120533"
         y="30.697189"
         x="437.88449"
         style="font-size:32px;font-style:normal;font-variant:normal;font-weight:bold;font-stretch:normal;text-align:start;line-height:125%;writing-mode:lr-tb;text-anchor:start;fill:#00ff00;fill-opacity:1;stroke:none;stroke-width:1px;stroke-linecap:butt;stroke-linejoin:miter;stroke-opacity:1;font-family:Bitstream Vera Sans"
         xml:space="preserve"><tspan
           y="30.697189"
           x="437.88449"
           id="tspan120535"
           sodipodi:role="line">4</tspan></text>
    </g>
    <g
       id="g120537"
       transform="translate(-317.39187,291.82153)">
      <text
         sodipodi:linespacing="125%"
         id="text120539"
         y="30.697189"
         x="437.88449"
         style="font-size:32px;font-style:normal;font-variant:normal;font-weight:bold;font-stretch:normal;text-align:start;line-height:125%;writing-mode:lr-tb;text-anchor:start;fill:#00ff00;fill-opacity:1;stroke:none;stroke-width:1px;stroke-linecap:butt;stroke-linejoin:miter;stroke-opacity:1;font-family:Bitstream Vera Sans"
         xml:space="preserve"><tspan
           y="30.697189"
           x="437.88449"
           id="tspan120541"
           sodipodi:role="line">5</tspan></text>
    </g>
    <g
       id="g120543"
       transform="translate(-199.15748,289.4725)">
      <text
         sodipodi:linespacing="125%"
         id="text120545"
         y="30.697189"
         x="437.88449"
         style="font-size:32px;font-style:normal;font-variant:normal;font-weight:bold;font-stretch:normal;text-align:start;line-height:125%;writing-mode:lr-tb;text-anchor:start;fill:#00ff00;fill-opacity:1;stroke:none;stroke-width:1px;stroke-linecap:butt;stroke-linejoin:miter;stroke-opacity:1;font-family:Bitstream Vera Sans"
         xml:space="preserve"><tspan
           y="30.697189"
           x="437.88449"
           id="tspan120547"
           sodipodi:role="line">6</tspan></text>
    </g>
    <g
       id="g120549"
       transform="translate(-84.838136,289.4725)">
      <text
         sodipodi:linespacing="125%"
         id="text120551"
         y="30.697189"
         x="437.88449"
         style="font-size:32px;font-style:normal;font-variant:normal;font-weight:bold;font-stretch:normal;text-align:start;line-height:125%;writing-mode:lr-tb;text-anchor:start;fill:#00ff00;fill-opacity:1;stroke:none;stroke-width:1px;stroke-linecap:butt;stroke-linejoin:miter;stroke-opacity:1;font-family:Bitstream Vera Sans"
         xml:space="preserve"><tspan
           y="30.697189"
           x="437.88449"
           id="tspan120553"
           sodipodi:role="line">7</tspan></text>
    </g>
    <g
       id="g120555"
       transform="translate(34.962274,286.34047)">
      <text
         sodipodi:linespacing="125%"
         id="text120557"
         y="30.697189"
         x="437.88449"
         style="font-size:32px;font-style:normal;font-variant:normal;font-weight:bold;font-stretch:normal;text-align:start;line-height:125%;writing-mode:lr-tb;text-anchor:start;fill:#00ff00;fill-opacity:1;stroke:none;stroke-width:1px;stroke-linecap:butt;stroke-linejoin:miter;stroke-opacity:1;font-family:Bitstream Vera Sans"
         xml:space="preserve"><tspan
           y="30.697189"
           x="437.88449"
           id="tspan120559"
           sodipodi:role="line">8</tspan></text>
    </g>
    <g
       id="g120561"
       transform="translate(-315.82585,179.0682)">
      <text
         sodipodi:linespacing="125%"
         id="text120563"
         y="30.697189"
         x="437.88449"
         style="font-size:32px;font-style:normal;font-variant:normal;font-weight:bold;font-stretch:normal;text-align:start;line-height:125%;writing-mode:lr-tb;text-anchor:start;fill:#00ff00;fill-opacity:1;stroke:none;stroke-width:1px;stroke-linecap:butt;stroke-linejoin:miter;stroke-opacity:1;font-family:Bitstream Vera Sans"
         xml:space="preserve"><tspan
           y="30.697189"
           x="437.88449"
           id="tspan120565"
           sodipodi:role="line">9</tspan></text>
    </g>
    <g
       id="g120567"
       transform="translate(-200.7235,178.28519)">
      <text
         sodipodi:linespacing="125%"
         id="text120569"
         y="30.697189"
         x="437.88449"
         style="font-size:32px;font-style:normal;font-variant:normal;font-weight:bold;font-stretch:normal;text-align:start;line-height:125%;writing-mode:lr-tb;text-anchor:start;fill:#00ff00;fill-opacity:1;stroke:none;stroke-width:1px;stroke-linecap:butt;stroke-linejoin:miter;stroke-opacity:1;font-family:Bitstream Vera Sans"
         xml:space="preserve"><tspan
           y="30.697189"
           x="437.88449"
           id="tspan120571"
           sodipodi:role="line">10</tspan></text>
    </g>
    <g
       id="g120573"
       transform="translate(-86.404154,177.50219)">
      <text
         sodipodi:linespacing="125%"
         id="text120575"
         y="30.697189"
         x="437.88449"
         style="font-size:32px;font-style:normal;font-variant:normal;font-weight:bold;font-stretch:normal;text-align:start;line-height:125%;writing-mode:lr-tb;text-anchor:start;fill:#00ff00;fill-opacity:1;stroke:none;stroke-width:1px;stroke-linecap:butt;stroke-linejoin:miter;stroke-opacity:1;font-family:Bitstream Vera Sans"
         xml:space="preserve"><tspan
           y="30.697189"
           x="437.88449"
           id="tspan120577"
           sodipodi:role="line">11</tspan></text>
    </g>
    <g
       id="g120579"
       transform="translate(31.830237,175.93617)">
      <text
         sodipodi:linespacing="125%"
         id="text120581"
         y="30.697189"
         x="437.88449"
         style="font-size:32px;font-style:normal;font-variant:normal;font-weight:bold;font-stretch:normal;text-align:start;line-height:125%;writing-mode:lr-tb;text-anchor:start;fill:#00ff00;fill-opacity:1;stroke:none;stroke-width:1px;stroke-linecap:butt;stroke-linejoin:miter;stroke-opacity:1;font-family:Bitstream Vera Sans"
         xml:space="preserve"><tspan
           y="30.697189"
           x="437.88449"
           id="tspan120583"
           sodipodi:role="line">12</tspan></text>
    </g>
    <text
       sodipodi:linespacing="125%"
       id="text120585"
       y="428.43588"
       x="173.6974"
       style="font-size:32px;font-style:normal;font-variant:normal;font-weight:bold;font-stretch:normal;text-align:start;line-height:125%;writing-mode:lr-tb;text-anchor:start;fill:#ff00ff;fill-opacity:1;stroke:none;stroke-width:1px;stroke-linecap:butt;stroke-linejoin:miter;stroke-opacity:1;font-family:Bitstream Vera Sans"
       xml:space="preserve"><tspan
         y="428.43588"
         x="173.6974"
         id="tspan120587"
         sodipodi:role="line">17</tspan></text>
    <text
       sodipodi:linespacing="125%"
       id="text120589"
       y="429.2189"
       x="289.58276"
       style="font-size:32px;font-style:normal;font-variant:normal;font-weight:bold;font-stretch:normal;text-align:start;line-height:125%;writing-mode:lr-tb;text-anchor:start;fill:#ff00ff;fill-opacity:1;stroke:none;stroke-width:1px;stroke-linecap:butt;stroke-linejoin:miter;stroke-opacity:1;font-family:Bitstream Vera Sans"
       xml:space="preserve"><tspan
         y="429.2189"
         x="289.58276"
         id="tspan120591"
         sodipodi:role="line">18</tspan></text>
    <text
       sodipodi:linespacing="125%"
       id="text120593"
       y="429.2189"
       x="409.29822"
       style="font-size:32px;font-style:normal;font-variant:normal;font-weight:bold;font-stretch:normal;text-align:start;line-height:125%;writing-mode:lr-tb;text-anchor:start;fill:#ff00ff;fill-opacity:1;stroke:none;stroke-width:1px;stroke-linecap:butt;stroke-linejoin:miter;stroke-opacity:1;font-family:Bitstream Vera Sans"
       xml:space="preserve"><tspan
         y="429.2189"
         x="409.29822"
         id="tspan120595"
         sodipodi:role="line">19</tspan></text>
    <text
       sodipodi:linespacing="125%"
       id="text120597"
       y="371.27621"
       x="112.70764"
       style="font-size:32px;font-style:normal;font-variant:normal;font-weight:bold;font-stretch:normal;text-align:start;line-height:125%;writing-mode:lr-tb;text-anchor:start;fill:#ff00ff;fill-opacity:1;stroke:none;stroke-width:1px;stroke-linecap:butt;stroke-linejoin:miter;stroke-opacity:1;font-family:Bitstream Vera Sans"
       xml:space="preserve"><tspan
         y="371.27621"
         x="112.70764"
         id="tspan120599"
         sodipodi:role="line">20</tspan></text>
    <text
       sodipodi:linespacing="125%"
       id="text120601"
       y="369.71021"
       x="227.80998"
       style="font-size:32px;font-style:normal;font-variant:normal;font-weight:bold;font-stretch:normal;text-align:start;line-height:125%;writing-mode:lr-tb;text-anchor:start;fill:#ff00ff;fill-opacity:1;stroke:none;stroke-width:1px;stroke-linecap:butt;stroke-linejoin:miter;stroke-opacity:1;font-family:Bitstream Vera Sans"
       xml:space="preserve"><tspan
         y="369.71021"
         x="227.80998"
         id="tspan120603"
         sodipodi:role="line">21</tspan></text>
    <text
       sodipodi:linespacing="125%"
       id="text120605"
       y="368.1442"
       x="343.69537"
       style="font-size:32px;font-style:normal;font-variant:normal;font-weight:bold;font-stretch:normal;text-align:start;line-height:125%;writing-mode:lr-tb;text-anchor:start;fill:#ff00ff;fill-opacity:1;stroke:none;stroke-width:1px;stroke-linecap:butt;stroke-linejoin:miter;stroke-opacity:1;font-family:Bitstream Vera Sans"
       xml:space="preserve"><tspan
         y="368.1442"
         x="343.69537"
         id="tspan120607"
         sodipodi:role="line">22</tspan></text>
    <text
       sodipodi:linespacing="125%"
       id="text120609"
       y="368.92722"
       x="462.71277"
       style="font-size:32px;font-style:normal;font-variant:normal;font-weight:bold;font-stretch:normal;text-align:start;line-height:125%;writing-mode:lr-tb;text-anchor:start;fill:#ff00ff;fill-opacity:1;stroke:none;stroke-width:1px;stroke-linecap:butt;stroke-linejoin:miter;stroke-opacity:1;font-family:Bitstream Vera Sans"
       xml:space="preserve"><tspan
         y="368.92722"
         x="462.71277"
         id="tspan120611"
         sodipodi:role="line">23</tspan></text>
    <text
       sodipodi:linespacing="125%"
       id="text120613"
       y="318.81461"
       x="172.21632"
       style="font-size:32px;font-style:normal;font-variant:normal;font-weight:bold;font-stretch:normal;text-align:start;line-height:125%;writing-mode:lr-tb;text-anchor:start;fill:#ff00ff;fill-opacity:1;stroke:none;stroke-width:1px;stroke-linecap:butt;stroke-linejoin:miter;stroke-opacity:1;font-family:Bitstream Vera Sans"
       xml:space="preserve"><tspan
         y="318.81461"
         x="172.21632"
         id="tspan120615"
         sodipodi:role="line">24</tspan></text>
    <text
       sodipodi:linespacing="125%"
       id="text120617"
       y="316.46558"
       x="289.66772"
       style="font-size:32px;font-style:normal;font-variant:normal;font-weight:bold;font-stretch:normal;text-align:start;line-height:125%;writing-mode:lr-tb;text-anchor:start;fill:#ff00ff;fill-opacity:1;stroke:none;stroke-width:1px;stroke-linecap:butt;stroke-linejoin:miter;stroke-opacity:1;font-family:Bitstream Vera Sans"
       xml:space="preserve"><tspan
         y="316.46558"
         x="289.66772"
         id="tspan120619"
         sodipodi:role="line">25</tspan></text>
    <g
       id="g120621"
       transform="translate(-330.57684,71.22387)">
      <text
         sodipodi:linespacing="125%"
         id="text120623"
         y="30.697189"
         x="437.88449"
         style="font-size:32px;font-style:normal;font-variant:normal;font-weight:bold;font-stretch:normal;text-align:start;line-height:125%;writing-mode:lr-tb;text-anchor:start;fill:#00ff00;fill-opacity:1;stroke:none;stroke-width:1px;stroke-linecap:butt;stroke-linejoin:miter;stroke-opacity:1;font-family:Bitstream Vera Sans"
         xml:space="preserve"><tspan
           y="30.697189"
           x="437.88449"
           id="tspan120625"
           sodipodi:role="line">13</tspan></text>
    </g>
    <g
       id="g120627"
       transform="translate(-209.99342,68.091833)">
      <text
         sodipodi:linespacing="125%"
         id="text120629"
         y="30.697189"
         x="437.88449"
         style="font-size:32px;font-style:normal;font-variant:normal;font-weight:bold;font-stretch:normal;text-align:start;line-height:125%;writing-mode:lr-tb;text-anchor:start;fill:#00ff00;fill-opacity:1;stroke:none;stroke-width:1px;stroke-linecap:butt;stroke-linejoin:miter;stroke-opacity:1;font-family:Bitstream Vera Sans"
         xml:space="preserve"><tspan
           y="30.697189"
           x="437.88449"
           id="tspan120631"
           sodipodi:role="line">14</tspan></text>
    </g>
    <g
       id="g120633"
       transform="translate(-95.674073,65.742806)">
      <text
         sodipodi:linespacing="125%"
         id="text120635"
         y="30.697189"
         x="437.88449"
         style="font-size:32px;font-style:normal;font-variant:normal;font-weight:bold;font-stretch:normal;text-align:start;line-height:125%;writing-mode:lr-tb;text-anchor:start;fill:#00ff00;fill-opacity:1;stroke:none;stroke-width:1px;stroke-linecap:butt;stroke-linejoin:miter;stroke-opacity:1;font-family:Bitstream Vera Sans"
         xml:space="preserve"><tspan
           y="30.697189"
           x="437.88449"
           id="tspan120637"
           sodipodi:role="line">15</tspan></text>
    </g>
    <g
       id="g120639"
       transform="translate(20.994299,67.308824)">
      <text
         sodipodi:linespacing="125%"
         id="text120641"
         y="30.697189"
         x="437.88449"
         style="font-size:32px;font-style:normal;font-variant:normal;font-weight:bold;font-stretch:normal;text-align:start;line-height:125%;writing-mode:lr-tb;text-anchor:start;fill:#00ff00;fill-opacity:1;stroke:none;stroke-width:1px;stroke-linecap:butt;stroke-linejoin:miter;stroke-opacity:1;font-family:Bitstream Vera Sans"
         xml:space="preserve"><tspan
           y="30.697189"
           x="437.88449"
           id="tspan120643"
           sodipodi:role="line">16</tspan></text>
    </g>
    <text
       sodipodi:linespacing="125%"
       id="text120645"
       y="317.92404"
       x="400.03592"
       style="font-size:32px;font-style:normal;font-variant:normal;font-weight:bold;font-stretch:normal;text-align:start;line-height:125%;writing-mode:lr-tb;text-anchor:start;fill:#ff00ff;fill-opacity:1;stroke:none;stroke-width:1px;stroke-linecap:butt;stroke-linejoin:miter;stroke-opacity:1;font-family:Bitstream Vera Sans"
       xml:space="preserve"><tspan
         y="317.92404"
         x="400.03592"
         id="tspan120647"
         sodipodi:role="line">26</tspan></text>
    <text
       sodipodi:linespacing="125%"
       id="text120649"
       y="260.64536"
       x="111.23051"
       style="font-size:32px;font-style:normal;font-variant:normal;font-weight:bold;font-stretch:normal;text-align:start;line-height:125%;writing-mode:lr-tb;text-anchor:start;fill:#ff00ff;fill-opacity:1;stroke:none;stroke-width:1px;stroke-linecap:butt;stroke-linejoin:miter;stroke-opacity:1;font-family:Bitstream Vera Sans"
       xml:space="preserve"><tspan
         y="260.64536"
         x="111.23051"
         id="tspan120651"
         sodipodi:role="line">27</tspan></text>
    <text
       sodipodi:linespacing="125%"
       id="text120653"
       y="261.42838"
       x="226.33287"
       style="font-size:32px;font-style:normal;font-variant:normal;font-weight:bold;font-stretch:normal;text-align:start;line-height:125%;writing-mode:lr-tb;text-anchor:start;fill:#ff00ff;fill-opacity:1;stroke:none;stroke-width:1px;stroke-linecap:butt;stroke-linejoin:miter;stroke-opacity:1;font-family:Bitstream Vera Sans"
       xml:space="preserve"><tspan
         y="261.42838"
         x="226.33287"
         id="tspan120655"
         sodipodi:role="line">28</tspan></text>
    <text
       sodipodi:linespacing="125%"
       id="text120657"
       y="262.2114"
       x="343.00125"
       style="font-size:32px;font-style:normal;font-variant:normal;font-weight:bold;font-stretch:normal;text-align:start;line-height:125%;writing-mode:lr-tb;text-anchor:start;fill:#ff00ff;fill-opacity:1;stroke:none;stroke-width:1px;stroke-linecap:butt;stroke-linejoin:miter;stroke-opacity:1;font-family:Bitstream Vera Sans"
       xml:space="preserve"><tspan
         y="262.2114"
         x="343.00125"
         id="tspan120659"
         sodipodi:role="line">29</tspan></text>
    <text
       sodipodi:linespacing="125%"
       id="text120661"
       y="261.42838"
       x="460.45261"
       style="font-size:32px;font-style:normal;font-variant:normal;font-weight:bold;font-stretch:normal;text-align:start;line-height:125%;writing-mode:lr-tb;text-anchor:start;fill:#ff00ff;fill-opacity:1;stroke:none;stroke-width:1px;stroke-linecap:butt;stroke-linejoin:miter;stroke-opacity:1;font-family:Bitstream Vera Sans"
       xml:space="preserve"><tspan
         y="261.42838"
         x="460.45261"
         id="tspan120663"
         sodipodi:role="line">30</tspan></text>
    <text
       sodipodi:linespacing="125%"
       id="text120665"
       y="209.74977"
       x="164.47514"
       style="font-size:32px;font-style:normal;font-variant:normal;font-weight:bold;font-stretch:normal;text-align:start;line-height:125%;writing-mode:lr-tb;text-anchor:start;fill:#ff00ff;fill-opacity:1;stroke:none;stroke-width:1px;stroke-linecap:butt;stroke-linejoin:miter;stroke-opacity:1;font-family:Bitstream Vera Sans"
       xml:space="preserve"><tspan
         y="209.74977"
         x="164.47514"
         id="tspan120667"
         sodipodi:role="line">31</tspan></text>
    <text
       sodipodi:linespacing="125%"
       id="text120669"
       y="208.18375"
       x="291.05856"
       style="font-size:32px;font-style:normal;font-variant:normal;font-weight:bold;font-stretch:normal;text-align:start;line-height:125%;writing-mode:lr-tb;text-anchor:start;fill:#ff00ff;fill-opacity:1;stroke:none;stroke-width:1px;stroke-linecap:butt;stroke-linejoin:miter;stroke-opacity:1;font-family:Bitstream Vera Sans"
       xml:space="preserve"><tspan
         y="208.18375"
         x="291.05856"
         id="tspan120671"
         sodipodi:role="line">32</tspan></text>
    <text
       sodipodi:linespacing="125%"
       id="text120673"
       y="207.48569"
       x="407.72693"
       style="font-size:32px;font-style:normal;font-variant:normal;font-weight:bold;font-stretch:normal;text-align:start;line-height:125%;writing-mode:lr-tb;text-anchor:start;fill:#ff00ff;fill-opacity:1;stroke:none;stroke-width:1px;stroke-linecap:butt;stroke-linejoin:miter;stroke-opacity:1;font-family:Bitstream Vera Sans"
       xml:space="preserve"><tspan
         y="207.48569"
         x="407.72693"
         id="tspan120675"
         sodipodi:role="line">33</tspan></text>
    <text
       sodipodi:linespacing="125%"
       id="text120677"
       y="153.37311"
       x="111.6645"
       style="font-size:32px;font-style:normal;font-variant:normal;font-weight:bold;font-stretch:normal;text-align:start;line-height:125%;writing-mode:lr-tb;text-anchor:start;fill:#ff00ff;fill-opacity:1;stroke:none;stroke-width:1px;stroke-linecap:butt;stroke-linejoin:miter;stroke-opacity:1;font-family:Bitstream Vera Sans"
       xml:space="preserve"><tspan
         y="153.37311"
         x="111.6645"
         id="tspan120679"
         sodipodi:role="line">34</tspan></text>
    <text
       sodipodi:linespacing="125%"
       id="text120681"
       y="153.37311"
       x="226.33287"
       style="font-size:32px;font-style:normal;font-variant:normal;font-weight:bold;font-stretch:normal;text-align:start;line-height:125%;writing-mode:lr-tb;text-anchor:start;fill:#ff00ff;fill-opacity:1;stroke:none;stroke-width:1px;stroke-linecap:butt;stroke-linejoin:miter;stroke-opacity:1;font-family:Bitstream Vera Sans"
       xml:space="preserve"><tspan
         y="153.37311"
         x="226.33287"
         id="tspan120683"
         sodipodi:role="line">35</tspan></text>
    <text
       sodipodi:linespacing="125%"
       id="text120685"
       y="153.45805"
       x="342.21823"
       style="font-size:32px;font-style:normal;font-variant:normal;font-weight:bold;font-stretch:normal;text-align:start;line-height:125%;writing-mode:lr-tb;text-anchor:start;fill:#ff00ff;fill-opacity:1;stroke:none;stroke-width:1px;stroke-linecap:butt;stroke-linejoin:miter;stroke-opacity:1;font-family:Bitstream Vera Sans"
       xml:space="preserve"><tspan
         y="153.45805"
         x="342.21823"
         id="tspan120687"
         sodipodi:role="line">36</tspan></text>
    <text
       sodipodi:linespacing="125%"
       id="text120689"
       y="149.89204"
       x="461.23563"
       style="font-size:32px;font-style:normal;font-variant:normal;font-weight:bold;font-stretch:normal;text-align:start;line-height:125%;writing-mode:lr-tb;text-anchor:start;fill:#ff00ff;fill-opacity:1;stroke:none;stroke-width:1px;stroke-linecap:butt;stroke-linejoin:miter;stroke-opacity:1;font-family:Bitstream Vera Sans"
       xml:space="preserve"><tspan
         y="149.89204"
         x="461.23563"
         id="tspan120691"
         sodipodi:role="line">37</tspan></text>
    <text
       sodipodi:linespacing="125%"
       id="text120693"
       y="101.6945"
       x="168.04115"
       style="font-size:32px;font-style:normal;font-variant:normal;font-weight:bold;font-stretch:normal;text-align:start;line-height:125%;writing-mode:lr-tb;text-anchor:start;fill:#ff00ff;fill-opacity:1;stroke:none;stroke-width:1px;stroke-linecap:butt;stroke-linejoin:miter;stroke-opacity:1;font-family:Bitstream Vera Sans"
       xml:space="preserve"><tspan
         y="101.6945"
         x="168.04115"
         id="tspan120695"
         sodipodi:role="line">38</tspan></text>
    <text
       sodipodi:linespacing="125%"
       id="text120697"
       y="100.12848"
       x="287.14352"
       style="font-size:32px;font-style:normal;font-variant:normal;font-weight:bold;font-stretch:normal;text-align:start;line-height:125%;writing-mode:lr-tb;text-anchor:start;fill:#ff00ff;fill-opacity:1;stroke:none;stroke-width:1px;stroke-linecap:butt;stroke-linejoin:miter;stroke-opacity:1;font-family:Bitstream Vera Sans"
       xml:space="preserve"><tspan
         y="100.12848"
         x="287.14352"
         id="tspan120699"
         sodipodi:role="line">39</tspan></text>
    <text
       sodipodi:linespacing="125%"
       id="text120701"
       y="98.562462"
       x="399.81189"
       style="font-size:32px;font-style:normal;font-variant:normal;font-weight:bold;font-stretch:normal;text-align:start;line-height:125%;writing-mode:lr-tb;text-anchor:start;fill:#ff00ff;fill-opacity:1;stroke:none;stroke-width:1px;stroke-linecap:butt;stroke-linejoin:miter;stroke-opacity:1;font-family:Bitstream Vera Sans"
       xml:space="preserve"><tspan
         y="98.562462"
         x="399.81189"
         id="tspan120703"
         sodipodi:role="line">40</tspan></text>
    <g
       id="g120717"
       transform="translate(-268.47615,341.56947)"
       style="fill:#ff0000">
      <text
         sodipodi:linespacing="125%"
         id="text120719"
         y="30.697189"
         x="437.88449"
         style="font-size:32px;font-style:normal;font-variant:normal;font-weight:bold;font-stretch:normal;text-align:start;line-height:125%;writing-mode:lr-tb;text-anchor:start;fill:#ff0000;fill-opacity:1;stroke:none;stroke-width:1px;stroke-linecap:butt;stroke-linejoin:miter;stroke-opacity:1;font-family:Bitstream Vera Sans"
         xml:space="preserve"><tspan
           y="30.697189"
           x="437.88449"
           id="tspan120721"
           sodipodi:role="line">41</tspan></text>
    </g>
    <g
       id="g120723"
       transform="translate(-153.02476,341.91849)"
       style="fill:#ff0000">
      <text
         sodipodi:linespacing="125%"
         id="text120725"
         y="30.697189"
         x="437.88449"
         style="font-size:32px;font-style:normal;font-variant:normal;font-weight:bold;font-stretch:normal;text-align:start;line-height:125%;writing-mode:lr-tb;text-anchor:start;fill:#ff0000;fill-opacity:1;stroke:none;stroke-width:1px;stroke-linecap:butt;stroke-linejoin:miter;stroke-opacity:1;font-family:Bitstream Vera Sans"
         xml:space="preserve"><tspan
           y="30.697189"
           x="437.88449"
           id="tspan120727"
           sodipodi:role="line">42</tspan></text>
    </g>
    <g
       id="g120729"
       transform="translate(-36.356392,340.78646)"
       style="fill:#ff0000">
      <text
         sodipodi:linespacing="125%"
         id="text120731"
         y="30.697189"
         x="437.88449"
         style="font-size:32px;font-style:normal;font-variant:normal;font-weight:bold;font-stretch:normal;text-align:start;line-height:125%;writing-mode:lr-tb;text-anchor:start;fill:#ff0000;fill-opacity:1;stroke:none;stroke-width:1px;stroke-linecap:butt;stroke-linejoin:miter;stroke-opacity:1;font-family:Bitstream Vera Sans"
         xml:space="preserve"><tspan
           y="30.697189"
           x="437.88449"
           id="tspan120733"
           sodipodi:role="line">43</tspan></text>
    </g>
    <text
       sodipodi:linespacing="125%"
       id="text120735"
       y="264.66098"
       x="170.04721"
       style="font-size:32px;font-style:normal;font-variant:normal;font-weight:bold;font-stretch:normal;text-align:start;line-height:125%;writing-mode:lr-tb;text-anchor:start;fill:#ff0000;fill-opacity:1;stroke:none;stroke-width:1px;stroke-linecap:butt;stroke-linejoin:miter;stroke-opacity:1;font-family:Bitstream Vera Sans"
       xml:space="preserve"><tspan
         y="264.66098"
         x="170.04721"
         id="tspan120737"
         sodipodi:role="line">44</tspan></text>
    <text
       sodipodi:linespacing="125%"
       id="text120739"
       y="263.444"
       x="287.4986"
       style="font-size:32px;font-style:normal;font-variant:normal;font-weight:bold;font-stretch:normal;text-align:start;line-height:125%;writing-mode:lr-tb;text-anchor:start;fill:#ff0000;fill-opacity:1;stroke:none;stroke-width:1px;stroke-linecap:butt;stroke-linejoin:miter;stroke-opacity:1;font-family:Bitstream Vera Sans"
       xml:space="preserve"><tspan
         y="263.444"
         x="287.4986"
         id="tspan120741"
         sodipodi:role="line">45</tspan></text>
    <text
       sodipodi:linespacing="125%"
       id="text120743"
       y="263.01001"
       x="402.94998"
       style="font-size:32px;font-style:normal;font-variant:normal;font-weight:bold;font-stretch:normal;text-align:start;line-height:125%;writing-mode:lr-tb;text-anchor:start;fill:#ff0000;fill-opacity:1;stroke:none;stroke-width:1px;stroke-linecap:butt;stroke-linejoin:miter;stroke-opacity:1;font-family:Bitstream Vera Sans"
       xml:space="preserve"><tspan
         y="263.01001"
         x="402.94998"
         id="tspan120745"
         sodipodi:role="line">46</tspan></text>
    <text
       sodipodi:linespacing="125%"
       id="text120747"
       y="154.95474"
       x="168.83022"
       style="font-size:32px;font-style:normal;font-variant:normal;font-weight:bold;font-stretch:normal;text-align:start;line-height:125%;writing-mode:lr-tb;text-anchor:start;fill:#ff0000;fill-opacity:1;stroke:none;stroke-width:1px;stroke-linecap:butt;stroke-linejoin:miter;stroke-opacity:1;font-family:Bitstream Vera Sans"
       xml:space="preserve"><tspan
         y="154.95474"
         x="168.83022"
         id="tspan120749"
         sodipodi:role="line">47</tspan></text>
    <text
       sodipodi:linespacing="125%"
       id="text120751"
       y="153.38873"
       x="284.36655"
       style="font-size:32px;font-style:normal;font-variant:normal;font-weight:bold;font-stretch:normal;text-align:start;line-height:125%;writing-mode:lr-tb;text-anchor:start;fill:#ff0000;fill-opacity:1;stroke:none;stroke-width:1px;stroke-linecap:butt;stroke-linejoin:miter;stroke-opacity:1;font-family:Bitstream Vera Sans"
       xml:space="preserve"><tspan
         y="153.38873"
         x="284.36655"
         id="tspan120753"
         sodipodi:role="line">48</tspan></text>
    <text
       sodipodi:linespacing="125%"
       id="text120755"
       y="152.60573"
       x="399.81793"
       style="font-size:32px;font-style:normal;font-variant:normal;font-weight:bold;font-stretch:normal;text-align:start;line-height:125%;writing-mode:lr-tb;text-anchor:start;fill:#ff0000;fill-opacity:1;stroke:none;stroke-width:1px;stroke-linecap:butt;stroke-linejoin:miter;stroke-opacity:1;font-family:Bitstream Vera Sans"
       xml:space="preserve"><tspan
         y="152.60573"
         x="399.81793"
         id="tspan120757"
         sodipodi:role="line">49</tspan></text>
    <g
       id="g120772"
       transform="translate(138.45955,97.26575)"
       style="fill:#ff0000">
      <text
         sodipodi:linespacing="125%"
         id="text120774"
         y="30.697189"
         x="437.88449"
         style="font-size:32px;font-style:normal;font-variant:normal;font-weight:bold;font-stretch:normal;text-align:start;line-height:125%;writing-mode:lr-tb;text-anchor:start;fill:#ff0000;fill-opacity:1;stroke:none;stroke-width:1px;stroke-linecap:butt;stroke-linejoin:miter;stroke-opacity:1;font-family:Bitstream Vera Sans"
         xml:space="preserve"><tspan
           y="30.697189"
           x="437.88449"
           id="tspan120776"
           sodipodi:role="line">41</tspan></text>
    </g>
    <rect
       style="opacity:0.25;fill:#ffff00;fill-opacity:1;fill-rule:nonzero;stroke-width:1.35000002;stroke-linejoin:round;stroke-miterlimit:4;stroke-dasharray:none;stroke-dashoffset:0"
       id="rect120778"
       width="88.480042"
       height="83.781982"
       x="672.60492"
       y="74.799393" />
    <text
       sodipodi:linespacing="125%"
       id="text120780"
       y="67.882156"
       x="800.04431"
       style="font-size:32px;font-style:normal;font-variant:normal;font-weight:bold;font-stretch:normal;text-align:start;line-height:125%;writing-mode:lr-tb;text-anchor:start;fill:#ff00ff;fill-opacity:1;stroke:none;stroke-width:1px;stroke-linecap:butt;stroke-linejoin:miter;stroke-opacity:1;font-family:Bitstream Vera Sans"
       xml:space="preserve"><tspan
         y="67.882156"
         x="800.04431"
         id="tspan120782"
         sodipodi:role="line">17</tspan></text>
    <text
       sodipodi:linespacing="125%"
       id="text120784"
       y="191.59763"
       x="807.17639"
       style="font-size:32px;font-style:normal;font-variant:normal;font-weight:bold;font-stretch:normal;text-align:start;line-height:125%;writing-mode:lr-tb;text-anchor:start;fill:#ff00ff;fill-opacity:1;stroke:none;stroke-width:1px;stroke-linecap:butt;stroke-linejoin:miter;stroke-opacity:1;font-family:Bitstream Vera Sans"
       xml:space="preserve"><tspan
         y="191.59763"
         x="807.17639"
         id="tspan120786"
         sodipodi:role="line">20</tspan></text>
    <text
       sodipodi:linespacing="125%"
       id="text120788"
       y="109.38167"
       x="803.26135"
       style="font-size:32px;font-style:normal;font-variant:normal;font-weight:bold;font-stretch:normal;text-align:start;line-height:125%;writing-mode:lr-tb;text-anchor:start;fill:#ff00ff;fill-opacity:1;stroke:none;stroke-width:1px;stroke-linecap:butt;stroke-linejoin:miter;stroke-opacity:1;font-family:Bitstream Vera Sans"
       xml:space="preserve"><tspan
         y="109.38167"
         x="803.26135"
         id="tspan120790"
         sodipodi:role="line">21</tspan></text>
    <text
       sodipodi:linespacing="125%"
       id="text120792"
       y="151.66418"
       x="804.04431"
       style="font-size:32px;font-style:normal;font-variant:normal;font-weight:bold;font-stretch:normal;text-align:start;line-height:125%;writing-mode:lr-tb;text-anchor:start;fill:#ff00ff;fill-opacity:1;stroke:none;stroke-width:1px;stroke-linecap:butt;stroke-linejoin:miter;stroke-opacity:1;font-family:Bitstream Vera Sans"
       xml:space="preserve"><tspan
         y="151.66418"
         x="804.04431"
         id="tspan120794"
         sodipodi:role="line">24</tspan></text>
    <path
       style="fill:none;fill-rule:evenodd;stroke:#000000;stroke-width:1px;stroke-linecap:butt;stroke-linejoin:miter;marker-end:url(#Arrow2Lend);stroke-opacity:1"
       d="M 617.01126,115.94985 L 714.1044,115.16684"
       id="path120796"
       inkscape:connector-type="polyline" />
    <path
       style="fill:none;fill-rule:evenodd;stroke:#000000;stroke-width:1px;stroke-linecap:butt;stroke-linejoin:miter;marker-end:url(#Arrow2Lend);stroke-opacity:1"
       d="M 761.08496,85.526226 L 796.32037,60.70522"
       id="path121767"
       inkscape:connector-type="polyline"
       inkscape:connection-start="#rect120778"
       sodipodi:nodetypes="cc" />
    <path
       style="fill:none;fill-rule:evenodd;stroke:#000000;stroke-width:1px;stroke-linecap:butt;stroke-linejoin:miter;marker-end:url(#Arrow2Lend);stroke-opacity:1"
       d="M 761.9717,121.01888 L 805.0372,177.63083"
       id="path122738"
       inkscape:connector-type="polyline"
       sodipodi:nodetypes="cc" />
    <path
       style="fill:none;fill-rule:evenodd;stroke:#000000;stroke-width:1px;stroke-linecap:butt;stroke-linejoin:miter;marker-end:url(#Arrow2Lend);stroke-opacity:1"
       d="M 763.53772,115.53782 L 800.33914,100.11292"
       id="path122740"
       inkscape:connector-type="polyline"
       sodipodi:nodetypes="cc" />
    <path
       style="fill:none;fill-rule:evenodd;stroke:#000000;stroke-width:1px;stroke-linecap:butt;stroke-linejoin:miter;marker-end:url(#Arrow2Lend);stroke-opacity:1"
       d="M 762.75471,117.88685 L 798.77313,138.48037"
       id="path122742"
       inkscape:connector-type="polyline"
       sodipodi:nodetypes="cc" />
    <g
       id="g122744"
       transform="translate(139.20795,287.16602)"
       style="fill:#ff00ff">
      <text
         sodipodi:linespacing="125%"
         id="text122746"
         y="30.697189"
         x="437.88449"
         style="font-size:32px;font-style:normal;font-variant:normal;font-weight:bold;font-stretch:normal;text-align:start;line-height:125%;writing-mode:lr-tb;text-anchor:start;fill:#ff00ff;fill-opacity:1;stroke:none;stroke-width:1px;stroke-linecap:butt;stroke-linejoin:miter;stroke-opacity:1;font-family:Bitstream Vera Sans"
         xml:space="preserve"><tspan
           y="30.697189"
           x="437.88449"
           id="tspan122748"
           sodipodi:role="line">17</tspan></text>
    </g>
    <rect
       style="opacity:0.25;fill:#ffff00;fill-opacity:1;fill-rule:nonzero;stroke-width:1.35000002;stroke-linejoin:round;stroke-miterlimit:4;stroke-dasharray:none;stroke-dashoffset:0"
       id="rect122750"
       width="88.480042"
       height="83.781982"
       x="673.35333"
       y="264.69968" />
    <text
       sodipodi:linespacing="125%"
       id="text122760"
       y="299.28195"
       x="804.00977"
       style="font-size:32px;font-style:normal;font-variant:normal;font-weight:bold;font-stretch:normal;text-align:start;line-height:125%;writing-mode:lr-tb;text-anchor:start;fill:#00ff00;fill-opacity:1;stroke:none;stroke-width:1px;stroke-linecap:butt;stroke-linejoin:miter;stroke-opacity:1;font-family:Bitstream Vera Sans"
       xml:space="preserve"><tspan
         y="299.28195"
         x="804.00977"
         id="tspan122762"
         sodipodi:role="line">1</tspan></text>
    <text
       sodipodi:linespacing="125%"
       id="text122764"
       y="341.56445"
       x="804.79272"
       style="font-size:32px;font-style:normal;font-variant:normal;font-weight:bold;font-stretch:normal;text-align:start;line-height:125%;writing-mode:lr-tb;text-anchor:start;fill:#00ff00;fill-opacity:1;stroke:none;stroke-width:1px;stroke-linecap:butt;stroke-linejoin:miter;stroke-opacity:1;font-family:Bitstream Vera Sans"
       xml:space="preserve"><tspan
         y="341.56445"
         x="804.79272"
         id="tspan122766"
         sodipodi:role="line">2</tspan></text>
    <path
       style="fill:none;fill-rule:evenodd;stroke:#000000;stroke-width:1px;stroke-linecap:butt;stroke-linejoin:miter;marker-end:url(#Arrow2Lend);stroke-opacity:1"
       d="M 617.75966,305.85012 L 714.8528,305.06711"
       id="path122768"
       inkscape:connector-type="polyline" />
    <path
       style="fill:none;fill-rule:evenodd;stroke:#000000;stroke-width:1px;stroke-linecap:butt;stroke-linejoin:miter;marker-end:url(#Arrow2Lend);stroke-opacity:1"
       d="M 764.28612,305.43809 L 801.08754,290.01319"
       id="path122774"
       inkscape:connector-type="polyline"
       sodipodi:nodetypes="cc" />
    <path
       style="fill:none;fill-rule:evenodd;stroke:#000000;stroke-width:1px;stroke-linecap:butt;stroke-linejoin:miter;marker-end:url(#Arrow2Lend);stroke-opacity:1"
       d="M 763.50311,307.78712 L 799.52153,328.38064"
       id="path122776"
       inkscape:connector-type="polyline"
       sodipodi:nodetypes="cc" />
    <g
       id="g126591"
       transform="translate(-124.49846,131.54555)">
      <path
         transform="translate(108.83828,-64.989765)"
         d="M 667.12385 497.99387 A 25.839304 25.839304 0 1 1  615.44524,497.99387 A 25.839304 25.839304 0 1 1  667.12385 497.99387 z"
         sodipodi:ry="25.839304"
         sodipodi:rx="25.839304"
         sodipodi:cy="497.99387"
         sodipodi:cx="641.28455"
         id="path125612"
         style="opacity:1;fill:#ffff00;fill-opacity:1;fill-rule:nonzero;stroke-width:1.35000002;stroke-linejoin:round;stroke-miterlimit:4;stroke-dasharray:none;stroke-dashoffset:0"
         sodipodi:type="arc" />
      <g
         style="fill:#ff0000"
         transform="translate(289.14634,413.53699)"
         id="g126585">
        <text
           xml:space="preserve"
           style="font-size:32px;font-style:normal;font-variant:normal;font-weight:bold;font-stretch:normal;text-align:start;line-height:125%;writing-mode:lr-tb;text-anchor:start;fill:#00ff00;fill-opacity:1;stroke:none;stroke-width:1px;stroke-linecap:butt;stroke-linejoin:miter;stroke-opacity:1;font-family:Bitstream Vera Sans"
           x="437.88449"
           y="30.697189"
           id="text126587"
           sodipodi:linespacing="125%"><tspan
             sodipodi:role="line"
             id="tspan126589"
             x="437.88449"
             y="30.697189"> 1</tspan></text>
      </g>
    </g>
    <g
       id="g126597"
       transform="translate(-57.942683,68.121795)">
      <path
         transform="translate(108.83828,-64.989765)"
         d="M 667.12385 497.99387 A 25.839304 25.839304 0 1 1  615.44524,497.99387 A 25.839304 25.839304 0 1 1  667.12385 497.99387 z"
         sodipodi:ry="25.839304"
         sodipodi:rx="25.839304"
         sodipodi:cy="497.99387"
         sodipodi:cx="641.28455"
         id="path126599"
         style="opacity:1;fill:#ffff00;fill-opacity:1;fill-rule:nonzero;stroke-width:1.35000002;stroke-linejoin:round;stroke-miterlimit:4;stroke-dasharray:none;stroke-dashoffset:0"
         sodipodi:type="arc" />
      <g
         style="fill:#ff0000"
         transform="translate(289.14634,413.53699)"
         id="g126601">
        <text
           xml:space="preserve"
           style="font-size:32px;font-style:normal;font-variant:normal;font-weight:bold;font-stretch:normal;text-align:start;line-height:125%;writing-mode:lr-tb;text-anchor:start;fill:#ff0000;fill-opacity:1;stroke:none;stroke-width:1px;stroke-linecap:butt;stroke-linejoin:miter;stroke-opacity:1;font-family:Bitstream Vera Sans"
           x="437.88449"
           y="30.697189"
           id="text126603"
           sodipodi:linespacing="125%"><tspan
             sodipodi:role="line"
             id="tspan126605"
             x="437.88449"
             y="30.697189"
             style="fill:#ff00ff">17</tspan></text>
      </g>
    </g>
    <g
       id="g126607"
       transform="translate(1.5660179,135.46058)">
      <path
         transform="translate(108.83828,-64.989765)"
         d="M 667.12385 497.99387 A 25.839304 25.839304 0 1 1  615.44524,497.99387 A 25.839304 25.839304 0 1 1  667.12385 497.99387 z"
         sodipodi:ry="25.839304"
         sodipodi:rx="25.839304"
         sodipodi:cy="497.99387"
         sodipodi:cx="641.28455"
         id="path126609"
         style="opacity:1;fill:#ffff00;fill-opacity:1;fill-rule:nonzero;stroke-width:1.35000002;stroke-linejoin:round;stroke-miterlimit:4;stroke-dasharray:none;stroke-dashoffset:0"
         sodipodi:type="arc" />
      <g
         style="fill:#ff0000"
         transform="translate(289.14634,413.53699)"
         id="g126611">
        <text
           xml:space="preserve"
           style="font-size:32px;font-style:normal;font-variant:normal;font-weight:bold;font-stretch:normal;text-align:start;line-height:125%;writing-mode:lr-tb;text-anchor:start;fill:#ff0000;fill-opacity:1;stroke:none;stroke-width:1px;stroke-linecap:butt;stroke-linejoin:miter;stroke-opacity:1;font-family:Bitstream Vera Sans"
           x="437.88449"
           y="30.697189"
           id="text126613"
           sodipodi:linespacing="125%"><tspan
             sodipodi:role="line"
             id="tspan126615"
             x="437.88449"
             y="30.697189">41</tspan></text>
      </g>
    </g>
    <g
       id="g126617"
       transform="translate(-98.659162,238.81781)">
      <path
         transform="translate(108.83828,-64.989765)"
         d="M 667.12385 497.99387 A 25.839304 25.839304 0 1 1  615.44524,497.99387 A 25.839304 25.839304 0 1 1  667.12385 497.99387 z"
         sodipodi:ry="25.839304"
         sodipodi:rx="25.839304"
         sodipodi:cy="497.99387"
         sodipodi:cx="641.28455"
         id="path126619"
         style="opacity:1;fill:#ffff00;fill-opacity:1;fill-rule:nonzero;stroke-width:1.35000002;stroke-linejoin:round;stroke-miterlimit:4;stroke-dasharray:none;stroke-dashoffset:0"
         sodipodi:type="arc" />
      <g
         style="fill:#ff0000"
         transform="translate(289.14634,413.53699)"
         id="g126621">
        <text
           xml:space="preserve"
           style="font-size:32px;font-style:normal;font-variant:normal;font-weight:bold;font-stretch:normal;text-align:start;line-height:125%;writing-mode:lr-tb;text-anchor:start;fill:#008000;fill-opacity:1;stroke:none;stroke-width:1px;stroke-linecap:butt;stroke-linejoin:miter;stroke-opacity:1;font-family:Bitstream Vera Sans"
           x="437.88449"
           y="30.697189"
           id="text126623"
           sodipodi:linespacing="125%"><tspan
             sodipodi:role="line"
             id="tspan126625"
             x="437.88449"
             y="30.697189"> 2</tspan></text>
      </g>
    </g>
    <path
       style="fill:none;fill-rule:evenodd;stroke:#000000;stroke-width:1px;stroke-linecap:butt;stroke-linejoin:miter;stroke-opacity:1"
       d="M 673.38793,521.28114 L 649.11464,545.75743"
       id="path126627"
       inkscape:connector-type="polyline"
       sodipodi:nodetypes="cc" />
    <path
       style="fill:none;fill-rule:evenodd;stroke:#000000;stroke-width:1px;stroke-linecap:butt;stroke-linejoin:miter;stroke-opacity:1"
       d="M 711.75537,524.61618 L 731.38423,545.75742"
       id="path126629"
       inkscape:connector-type="polyline"
       inkscape:connection-end="#g126607"
       sodipodi:nodetypes="cc" />
    <path
       style="fill:none;fill-rule:evenodd;stroke:#000000;stroke-width:1px;stroke-linecap:butt;stroke-linejoin:miter;stroke-opacity:1"
       d="M 646.76561,641.28455 L 629.53941,592.73796"
       id="path126631"
       inkscape:connector-type="polyline"
       inkscape:connection-start="#g126617"
       inkscape:connection-end="#g126607"
       sodipodi:nodetypes="cc" />
    <path
       style="fill:none;fill-rule:evenodd;stroke:#000000;stroke-width:1px;stroke-linecap:butt;stroke-linejoin:miter;stroke-opacity:1;marker-start:none;marker-end:url(#Arrow2Lend)"
       d="M 259.95906,546.54043 L 572.37973,548.88946"
       id="path126633"
       inkscape:connector-type="polyline" />
  </g>
</svg>
