<?xml version="1.0" encoding="UTF-8" standalone="no"?>
<!-- Created with Inkscape (http://www.inkscape.org/) -->
<svg
   xmlns:dc="http://purl.org/dc/elements/1.1/"
   xmlns:cc="http://web.resource.org/cc/"
   xmlns:rdf="http://www.w3.org/1999/02/22-rdf-syntax-ns#"
   xmlns:svg="http://www.w3.org/2000/svg"
   xmlns="http://www.w3.org/2000/svg"
   xmlns:sodipodi="http://sodipodi.sourceforge.net/DTD/sodipodi-0.dtd"
   xmlns:inkscape="http://www.inkscape.org/namespaces/inkscape"
   width="792pt"
   height="612pt"
   id="svg37658"
   sodipodi:version="0.32"
   inkscape:version="0.45.1"
   sodipodi:docbase="/dynamics/Presentations/figures/Design"
   sodipodi:docname="ISieve3ico.svg"
   inkscape:output_extension="org.inkscape.output.svg.inkscape">
  <defs
     id="defs37660">
    <marker
       inkscape:stockid="Arrow2Lend"
       orient="auto"
       refY="0.0"
       refX="0.0"
       id="Arrow2Lend"
       style="overflow:visible;">
      <path
         id="path5188"
         style="font-size:12.0;fill-rule:evenodd;stroke-width:0.62500000;stroke-linejoin:round;"
         d="M 8.7185878,4.0337352 L -2.2072895,0.016013256 L 8.7185884,-4.0017078 C 6.9730900,-1.6296469 6.9831476,1.6157441 8.7185878,4.0337352 z "
         transform="scale(1.1) rotate(180) translate(1,0)" />
    </marker>
  </defs>
  <sodipodi:namedview
     inkscape:document-units="in"
     pagecolor="#ffffff"
     bordercolor="#666666"
     borderopacity="1.0"
     inkscape:pageopacity="0.0"
     inkscape:pageshadow="2"
     inkscape:zoom="1.2771242"
     inkscape:cx="495"
     inkscape:cy="403.84878"
     inkscape:current-layer="layer1"
     id="namedview37662"
     inkscape:window-width="1598"
     inkscape:window-height="1176"
     inkscape:window-x="0"
     inkscape:window-y="0" />
  <metadata
     id="metadata37664">
    <rdf:RDF>
      <cc:Work
         rdf:about="">
        <dc:format>image/svg+xml</dc:format>
        <dc:type
           rdf:resource="http://purl.org/dc/dcmitype/StillImage" />
      </cc:Work>
    </rdf:RDF>
  </metadata>
  <g
     inkscape:label="Layer 1"
     inkscape:groupmode="layer"
     id="layer1">
    <rect
       style="opacity:0.25;fill:#00ffff;fill-opacity:1;fill-rule:nonzero"
       id="rect117086"
       width="650.10767"
       height="42.986473"
       x="0.95129162"
       y="278.39923" />
    <rect
       style="opacity:0.25;fill:#00ffff;fill-opacity:1;fill-rule:nonzero"
       id="rect107724"
       width="416.65353"
       height="42.986473"
       x="10.957692"
       y="41.100777" />
    <path
       style="opacity:1;fill:#000010;fill-opacity:0;fill-rule:nonzero;stroke-width:1;stroke-miterlimit:4;stroke-dasharray:1, 2;stroke-dashoffset:0"
       id="path29264"
       d="M 1022.4988,238.39366 C 1022.6108,233.37735 1022.6945,228.36002 1022.7669,223.34284 C 1022.8353,213.10943 1022.8547,202.87533 1022.8909,192.64155 C 1022.7431,182.89436 1022.965,173.14803 1024.0117,163.45433 C 1024.6952,157.01945 1025.7095,150.6277 1027.0667,144.3054 C 1027.8636,141.58339 1028.7348,138.88482 1029.603,136.18506 L 1041.7258,126.48606 C 1040.8084,129.16102 1039.9168,131.84054 1039.1065,134.55032 C 1037.4414,140.91582 1036.1546,147.38323 1035.4119,153.92998 C 1034.344,163.60803 1034.168,173.34375 1034.0914,183.07544 C 1034.1276,193.23862 1034.1469,203.40214 1034.2154,213.56494 C 1034.2874,218.42945 1034.3708,223.29415 1034.4835,228.15773 L 1022.4988,238.39366 z " />
    <text
       xml:space="preserve"
       style="font-size:28px;font-style:normal;font-variant:normal;font-weight:bold;font-stretch:normal;text-align:start;line-height:125%;writing-mode:lr-tb;text-anchor:start;fill:#999999;fill-opacity:1;stroke:none;stroke-width:1px;stroke-linecap:butt;stroke-linejoin:miter;stroke-opacity:1;font-family:Bitstream Vera Sans"
       x="20.462866"
       y="71.650475"
       id="text107712"
       sodipodi:linespacing="125%"><tspan
         sodipodi:role="line"
         id="tspan107714"
         x="20.462866"
         y="71.650475">x,x</tspan></text>
    <path
       style="fill:none;fill-rule:evenodd;stroke:#000000;stroke-width:1.35000002;stroke-linecap:butt;stroke-linejoin:miter;stroke-miterlimit:4;stroke-dasharray:none;stroke-dashoffset:0;stroke-opacity:1"
       d="M 80.377029,44.65216 L 80.377029,80.21435"
       id="path108014"
       inkscape:connector-type="polyline"
       sodipodi:nodetypes="cc" />
    <g
       id="g108030"
       transform="translate(-405.3777,5.7790896)">
      <text
         sodipodi:linespacing="125%"
         id="text108032"
         y="30.697189"
         x="437.88449"
         style="font-size:32px;font-style:normal;font-variant:normal;font-weight:bold;font-stretch:normal;text-align:start;line-height:125%;writing-mode:lr-tb;text-anchor:start;fill:#00ff00;fill-opacity:1;stroke:none;stroke-width:1px;stroke-linecap:butt;stroke-linejoin:miter;stroke-opacity:1;font-family:Bitstream Vera Sans"
         xml:space="preserve"><tspan
           y="30.697189"
           x="437.88449"
           id="tspan108034"
           sodipodi:role="line">x</tspan></text>
    </g>
    <path
       style="fill:none;fill-rule:evenodd;stroke:#000000;stroke-width:1px;stroke-linecap:butt;stroke-linejoin:miter;marker-end:url(#Arrow2Lend);stroke-opacity:1"
       d="M 29.373839,76.02464 L 50.959153,150.24023"
       id="path108067"
       inkscape:connector-type="polyline"
       sodipodi:nodetypes="cc" />
    <text
       xml:space="preserve"
       style="font-size:28px;font-style:normal;font-variant:normal;font-weight:bold;font-stretch:normal;text-align:start;line-height:125%;writing-mode:lr-tb;text-anchor:start;fill:#999999;fill-opacity:1;stroke:none;stroke-width:1px;stroke-linecap:butt;stroke-linejoin:miter;stroke-opacity:1;font-family:Bitstream Vera Sans"
       x="92.29454"
       y="71.206612"
       id="text112932"
       sodipodi:linespacing="125%"><tspan
         sodipodi:role="line"
         id="tspan112934"
         x="92.29454"
         y="71.206612">x,x</tspan></text>
    <path
       style="fill:none;fill-rule:evenodd;stroke:#000000;stroke-width:1.35000002;stroke-linecap:butt;stroke-linejoin:miter;stroke-miterlimit:4;stroke-dasharray:none;stroke-dashoffset:0;stroke-opacity:1"
       d="M 152.2087,44.20829 L 152.2087,79.77048"
       id="path112936"
       inkscape:connector-type="polyline"
       sodipodi:nodetypes="cc" />
    <g
       id="g112938"
       transform="translate(-333.54603,5.3352196)">
      <text
         sodipodi:linespacing="125%"
         id="text112940"
         y="30.697189"
         x="437.88449"
         style="font-size:32px;font-style:normal;font-variant:normal;font-weight:bold;font-stretch:normal;text-align:start;line-height:125%;writing-mode:lr-tb;text-anchor:start;fill:#00ff00;fill-opacity:1;stroke:none;stroke-width:1px;stroke-linecap:butt;stroke-linejoin:miter;stroke-opacity:1;font-family:Bitstream Vera Sans"
         xml:space="preserve"><tspan
           y="30.697189"
           x="437.88449"
           id="tspan112942"
           sodipodi:role="line">x</tspan></text>
    </g>
    <text
       xml:space="preserve"
       style="font-size:28px;font-style:normal;font-variant:normal;font-weight:bold;font-stretch:normal;text-align:start;line-height:125%;writing-mode:lr-tb;text-anchor:start;fill:#999999;fill-opacity:1;stroke:none;stroke-width:1px;stroke-linecap:butt;stroke-linejoin:miter;stroke-opacity:1;font-family:Bitstream Vera Sans"
       x="164.99419"
       y="70.879295"
       id="text112950"
       sodipodi:linespacing="125%"><tspan
         sodipodi:role="line"
         id="tspan112952"
         x="164.99419"
         y="70.879295">x,x</tspan></text>
    <g
       id="g112956"
       transform="translate(-260.84637,5.0078896)">
      <text
         sodipodi:linespacing="125%"
         id="text112958"
         y="30.697189"
         x="437.88449"
         style="font-size:32px;font-style:normal;font-variant:normal;font-weight:bold;font-stretch:normal;text-align:start;line-height:125%;writing-mode:lr-tb;text-anchor:start;fill:#00ff00;fill-opacity:1;stroke:none;stroke-width:1px;stroke-linecap:butt;stroke-linejoin:miter;stroke-opacity:1;font-family:Bitstream Vera Sans"
         xml:space="preserve"><tspan
           y="30.697189"
           x="437.88449"
           id="tspan112960"
           sodipodi:role="line">x</tspan></text>
    </g>
    <path
       style="fill:none;fill-rule:evenodd;stroke:#000000;stroke-width:1px;stroke-linecap:butt;stroke-linejoin:miter;marker-end:url(#Arrow2Lend);stroke-opacity:1"
       d="M 102.10226,74.98184 L 129.95164,153.11248"
       id="path112991"
       inkscape:connector-type="polyline"
       sodipodi:nodetypes="cc" />
    <path
       style="fill:none;fill-rule:evenodd;stroke:#000000;stroke-width:1.35000002;stroke-linecap:butt;stroke-linejoin:miter;stroke-miterlimit:4;stroke-dasharray:none;stroke-dashoffset:0;stroke-opacity:1"
       d="M 222.34066,45.25473 L 222.34066,80.81692"
       id="path114070"
       inkscape:connector-type="polyline"
       sodipodi:nodetypes="cc" />
    <text
       xml:space="preserve"
       style="font-size:28px;font-style:normal;font-variant:normal;font-weight:bold;font-stretch:normal;text-align:start;line-height:125%;writing-mode:lr-tb;text-anchor:start;fill:#999999;fill-opacity:1;stroke:none;stroke-width:1px;stroke-linecap:butt;stroke-linejoin:miter;stroke-opacity:1;font-family:Bitstream Vera Sans"
       x="233.12614"
       y="71.925728"
       id="text114072"
       sodipodi:linespacing="125%"><tspan
         sodipodi:role="line"
         id="tspan114074"
         x="233.12614"
         y="71.925728">x,x</tspan></text>
    <g
       id="g114076"
       transform="translate(-192.6565,5.3902596)">
      <text
         sodipodi:linespacing="125%"
         id="text114078"
         y="30.697189"
         x="437.88449"
         style="font-size:32px;font-style:normal;font-variant:normal;font-weight:bold;font-stretch:normal;text-align:start;line-height:125%;writing-mode:lr-tb;text-anchor:start;fill:#00ff00;fill-opacity:1;stroke:none;stroke-width:1px;stroke-linecap:butt;stroke-linejoin:miter;stroke-opacity:1;font-family:Bitstream Vera Sans"
         xml:space="preserve"><tspan
           y="30.697189"
           x="437.88449"
           id="tspan114080"
           sodipodi:role="line">x</tspan></text>
    </g>
    <g
       id="g117570"
       transform="translate(-118.04364,5.8284236)"
       style="fill:#ff00ff">
      <text
         sodipodi:linespacing="125%"
         id="text117572"
         y="30.697189"
         x="437.88449"
         style="font-size:32px;font-style:normal;font-variant:normal;font-weight:bold;font-stretch:normal;text-align:start;line-height:125%;writing-mode:lr-tb;text-anchor:start;fill:#ff00ff;fill-opacity:1;stroke:none;stroke-width:1px;stroke-linecap:butt;stroke-linejoin:miter;stroke-opacity:1;font-family:Bitstream Vera Sans"
         xml:space="preserve"><tspan
           y="30.697189"
           x="437.88449"
           id="tspan117574"
           sodipodi:role="line">x</tspan></text>
    </g>
    <path
       style="fill:none;fill-rule:evenodd;stroke:#000000;stroke-width:1.35000002;stroke-linecap:butt;stroke-linejoin:miter;stroke-miterlimit:4;stroke-dasharray:none;stroke-dashoffset:0;stroke-opacity:1"
       d="M 287.98301,44.77469 L 287.98301,80.33688"
       id="path117594"
       inkscape:connector-type="polyline"
       sodipodi:nodetypes="cc" />
    <text
       xml:space="preserve"
       style="font-size:28px;font-style:normal;font-variant:normal;font-weight:bold;font-stretch:normal;text-align:start;line-height:125%;writing-mode:lr-tb;text-anchor:start;fill:#999999;fill-opacity:1;stroke:none;stroke-width:1px;stroke-linecap:butt;stroke-linejoin:miter;stroke-opacity:1;font-family:Bitstream Vera Sans"
       x="297.20248"
       y="72.228691"
       id="text117596"
       sodipodi:linespacing="125%"><tspan
         sodipodi:role="line"
         id="tspan117598"
         x="297.20248"
         y="72.228691">x,x</tspan></text>
    <g
       id="g118188"
       transform="translate(-27.405323,-114.31935)">
      <rect
         y="269.62189"
         x="59.350613"
         height="42.986473"
         width="308.71567"
         id="rect108041"
         style="opacity:0.25;fill:#00ffff;fill-opacity:1;fill-rule:nonzero" />
      <text
         sodipodi:linespacing="125%"
         id="text117729"
         y="299.68079"
         x="71.191185"
         style="font-size:28px;font-style:normal;font-variant:normal;font-weight:bold;font-stretch:normal;text-align:start;line-height:125%;writing-mode:lr-tb;text-anchor:start;fill:#999999;fill-opacity:1;stroke:none;stroke-width:1px;stroke-linecap:butt;stroke-linejoin:miter;stroke-opacity:1;font-family:Bitstream Vera Sans"
         xml:space="preserve"><tspan
           y="299.68079"
           x="71.191185"
           id="tspan117731"
           sodipodi:role="line">x</tspan></text>
      <text
         sodipodi:linespacing="125%"
         id="text117869"
         y="295.90579"
         x="146.71835"
         style="font-size:28px;font-style:normal;font-variant:normal;font-weight:bold;font-stretch:normal;text-align:start;line-height:125%;writing-mode:lr-tb;text-anchor:start;fill:#000000;fill-opacity:1;stroke:none;stroke-width:1px;stroke-linecap:butt;stroke-linejoin:miter;stroke-opacity:1;font-family:Bitstream Vera Sans"
         xml:space="preserve"><tspan
           y="295.90579"
           x="146.71835"
           id="tspan117871"
           sodipodi:role="line">. . .</tspan></text>
      <text
         sodipodi:linespacing="125%"
         id="text117896"
         y="300.26849"
         x="94.915817"
         style="font-size:28px;font-style:normal;font-variant:normal;font-weight:bold;font-stretch:normal;text-align:start;line-height:125%;writing-mode:lr-tb;text-anchor:start;fill:#999999;fill-opacity:1;stroke:none;stroke-width:1px;stroke-linecap:butt;stroke-linejoin:miter;stroke-opacity:1;font-family:Bitstream Vera Sans"
         xml:space="preserve"><tspan
           y="300.26849"
           x="94.915817"
           id="tspan117898"
           sodipodi:role="line">x</tspan></text>
      <text
         sodipodi:linespacing="125%"
         id="text117900"
         y="299.58508"
         x="119.1307"
         style="font-size:28px;font-style:normal;font-variant:normal;font-weight:bold;font-stretch:normal;text-align:start;line-height:125%;writing-mode:lr-tb;text-anchor:start;fill:#999999;fill-opacity:1;stroke:none;stroke-width:1px;stroke-linecap:butt;stroke-linejoin:miter;stroke-opacity:1;font-family:Bitstream Vera Sans"
         xml:space="preserve"><tspan
           y="299.58508"
           x="119.1307"
           id="tspan117902"
           sodipodi:role="line">x</tspan></text>
    </g>
    <path
       style="fill:none;fill-rule:evenodd;stroke:#000000;stroke-width:1.35000002;stroke-linecap:butt;stroke-linejoin:miter;stroke-miterlimit:4;stroke-dasharray:none;stroke-dashoffset:0;stroke-opacity:1"
       d="M 370.54248,45.293624 L 370.54248,80.855814"
       id="path117920"
       inkscape:connector-type="polyline"
       sodipodi:nodetypes="cc" />
    <text
       xml:space="preserve"
       style="font-size:28px;font-style:normal;font-variant:normal;font-weight:bold;font-stretch:normal;text-align:start;line-height:125%;writing-mode:lr-tb;text-anchor:start;fill:#000000;fill-opacity:1;stroke:none;stroke-width:1px;stroke-linecap:butt;stroke-linejoin:miter;stroke-opacity:1;font-family:Bitstream Vera Sans"
       x="372.10657"
       y="71.550316"
       id="text117922"
       sodipodi:linespacing="125%"><tspan
         sodipodi:role="line"
         id="tspan117924"
         x="372.10657"
         y="71.550316">. . .</tspan></text>
    <g
       id="g117096"
       transform="translate(-436.67028,279.42192)"
       style="fill:#ff0000">
      <text
         sodipodi:linespacing="125%"
         id="text117098"
         y="30.697189"
         x="437.88449"
         style="font-size:32px;font-style:normal;font-variant:normal;font-weight:bold;font-stretch:normal;text-align:start;line-height:125%;writing-mode:lr-tb;text-anchor:start;fill:#ff00ff;fill-opacity:1;stroke:none;stroke-width:1px;stroke-linecap:butt;stroke-linejoin:miter;stroke-opacity:1;font-family:Bitstream Vera Sans"
         xml:space="preserve"><tspan
           y="30.697189"
           x="437.88449"
           id="tspan117100"
           sodipodi:role="line"
           style="fill:#000000">[(<tspan
   style="fill:#00ff00"
   id="tspan118319">x</tspan>,<tspan
   style="fill:#ff00ff"
   id="tspan118323">x</tspan>)<tspan
   style="fill:#ffff00"
   id="tspan118345">x</tspan>]</tspan></text>
    </g>
    <g
       id="g117641"
       transform="translate(-298.29245,279.42718)"
       style="fill:#ff0000">
      <text
         sodipodi:linespacing="125%"
         id="text117643"
         y="30.697189"
         x="437.88449"
         style="font-size:32px;font-style:normal;font-variant:normal;font-weight:bold;font-stretch:normal;text-align:start;line-height:125%;writing-mode:lr-tb;text-anchor:start;fill:#ff0000;fill-opacity:1;stroke:none;stroke-width:1px;stroke-linecap:butt;stroke-linejoin:miter;stroke-opacity:1;font-family:Bitstream Vera Sans"
         xml:space="preserve"><tspan
           y="30.697189"
           x="437.88449"
           id="tspan117645"
           sodipodi:role="line"><tspan
             style="fill:#000000"
             id="tspan117647">[(<tspan
   style="fill:#00ff00"
   id="tspan118325">x</tspan>,<tspan
   style="fill:#ff00ff"
   id="tspan118327">x</tspan>)<tspan
   style="fill:#ffff00"
   id="tspan118347">x</tspan>]</tspan></tspan></text>
    </g>
    <g
       id="g117659"
       transform="translate(-144.83187,280.38931)"
       style="fill:#ff0000">
      <text
         sodipodi:linespacing="125%"
         id="text117661"
         y="30.697189"
         x="437.88449"
         style="font-size:32px;font-style:normal;font-variant:normal;font-weight:bold;font-stretch:normal;text-align:start;line-height:125%;writing-mode:lr-tb;text-anchor:start;fill:#ff0000;fill-opacity:1;stroke:none;stroke-width:1px;stroke-linecap:butt;stroke-linejoin:miter;stroke-opacity:1;font-family:Bitstream Vera Sans"
         xml:space="preserve"><tspan
           y="30.697189"
           x="437.88449"
           id="tspan117663"
           sodipodi:role="line"><tspan
             style="fill:#000000"
             id="tspan117665">[(<tspan
   style="fill:#00ff00"
   id="tspan118329">x</tspan>,<tspan
   style="fill:#ff00ff"
   id="tspan118331">x</tspan>)<tspan
   style="fill:#ffff00"
   id="tspan118349">x</tspan>]</tspan></tspan></text>
    </g>
    <g
       id="g117677"
       transform="translate(66.222377,278.55922)"
       style="fill:#ff0000">
      <text
         sodipodi:linespacing="125%"
         id="text117679"
         y="30.697189"
         x="437.88449"
         style="font-size:32px;font-style:normal;font-variant:normal;font-weight:bold;font-stretch:normal;text-align:start;line-height:125%;writing-mode:lr-tb;text-anchor:start;fill:#ff0000;fill-opacity:1;stroke:none;stroke-width:1px;stroke-linecap:butt;stroke-linejoin:miter;stroke-opacity:1;font-family:Bitstream Vera Sans"
         xml:space="preserve"><tspan
           y="30.697189"
           x="437.88449"
           id="tspan117681"
           sodipodi:role="line"><tspan
             style="fill:#000000"
             id="tspan117683">[(<tspan
   style="fill:#ff00ff"
   id="tspan118337">x</tspan>,<tspan
   style="fill:#ff0000"
   id="tspan118339">x</tspan>)<tspan
   style="fill:#ffff00"
   id="tspan118351">x</tspan>]</tspan></tspan></text>
    </g>
    <text
       xml:space="preserve"
       style="font-size:28px;font-style:normal;font-variant:normal;font-weight:bold;font-stretch:normal;text-align:start;line-height:125%;writing-mode:lr-tb;text-anchor:start;fill:#999999;fill-opacity:1;stroke:none;stroke-width:1px;stroke-linecap:butt;stroke-linejoin:miter;stroke-opacity:1;font-family:Bitstream Vera Sans"
       x="40.022354"
       y="274.84952"
       id="text117865"
       sodipodi:linespacing="125%"><tspan
         sodipodi:role="line"
         id="tspan117867"
         x="40.022354"
         y="274.84952">x</tspan></text>
    <text
       xml:space="preserve"
       style="font-size:28px;font-style:normal;font-variant:normal;font-weight:bold;font-stretch:normal;text-align:start;line-height:125%;writing-mode:lr-tb;text-anchor:start;fill:#000000;fill-opacity:1;stroke:none;stroke-width:1px;stroke-linecap:butt;stroke-linejoin:miter;stroke-opacity:1;font-family:Bitstream Vera Sans"
       x="442.57742"
       y="308.0191"
       id="text117884"
       sodipodi:linespacing="125%"><tspan
         sodipodi:role="line"
         id="tspan117886"
         x="442.57742"
         y="308.0191">. . .</tspan></text>
    <text
       xml:space="preserve"
       style="font-size:28px;font-style:normal;font-variant:normal;font-weight:bold;font-stretch:normal;text-align:start;line-height:125%;writing-mode:lr-tb;text-anchor:start;fill:#999999;fill-opacity:1;stroke:none;stroke-width:1px;stroke-linecap:butt;stroke-linejoin:miter;stroke-opacity:1;font-family:Bitstream Vera Sans"
       x="190.00188"
       y="274.50049"
       id="text117888"
       sodipodi:linespacing="125%"><tspan
         sodipodi:role="line"
         id="tspan117890"
         x="190.00188"
         y="274.50049">x</tspan></text>
    <text
       xml:space="preserve"
       style="font-size:28px;font-style:normal;font-variant:normal;font-weight:bold;font-stretch:normal;text-align:start;line-height:125%;writing-mode:lr-tb;text-anchor:start;fill:#999999;fill-opacity:1;stroke:none;stroke-width:1px;stroke-linecap:butt;stroke-linejoin:miter;stroke-opacity:1;font-family:Bitstream Vera Sans"
       x="335.21683"
       y="277.19855"
       id="text117892"
       sodipodi:linespacing="125%"><tspan
         sodipodi:role="line"
         id="tspan117894"
         x="335.21683"
         y="277.19855">x</tspan></text>
    <path
       style="fill:none;fill-rule:evenodd;stroke:#000000;stroke-width:1px;stroke-linecap:butt;stroke-linejoin:miter;marker-end:url(#Arrow2Lend);stroke-opacity:1"
       d="M 65.942239,202.90164 L 46.811089,253.62695"
       id="path117904"
       inkscape:connector-type="polyline"
       sodipodi:nodetypes="cc" />
    <path
       style="fill:none;fill-rule:evenodd;stroke:#000000;stroke-width:1px;stroke-linecap:butt;stroke-linejoin:miter;marker-end:url(#Arrow2Lend);stroke-opacity:1"
       d="M 90.921576,206.00911 L 190.02479,259.08345"
       id="path117906"
       inkscape:connector-type="polyline"
       sodipodi:nodetypes="cc" />
    <path
       style="fill:none;fill-rule:evenodd;stroke:#000000;stroke-width:1px;stroke-linecap:butt;stroke-linejoin:miter;marker-end:url(#Arrow2Lend);stroke-opacity:1"
       d="M 115.19486,205.22609 L 333.31548,259.08344"
       id="path117908"
       inkscape:connector-type="polyline"
       sodipodi:nodetypes="cc" />
  </g>
</svg>
